<?xml version="1.0" encoding="UTF-8" standalone="no"?>
<svg
   xmlns:svg="http://www.w3.org/2000/svg"
   xmlns="http://www.w3.org/2000/svg"
   width="600.0"
   height="400.0"

>
    <g transform="scale(9.675119740820577, -9.675119740820577)   translate(15.21904156640537,-18.388998873830612)" stroke-width="0.1"  fill="none">
       <!-- hidden lines -->
       <g  stroke="rgb(160,160,160)" fill="none" stroke-dasharray="0.1,0.1" >
			<path d="M-7.495331880577402,2.7249008689790415 L-11.172287142747452,4.160997272900427 " />
			<path d="M-11.172287142747452,4.160997272900427 L16.977633816289007,15.155419934460102 " />
			<path d="M16.977633816289007,15.155419934460104 L20.654589078459058,13.71932353053872 " />
			<path d="M20.654589078459054,13.719323530538716 L-7.495331880577402,2.7249008689790424 " />
			<path d="M-7.4953318805774,-11.451948246655144 L-7.397496972999214,-11.05900030197787 L-7.305815883515745,-10.661362644175647 L-7.220320097224146,-10.259171829874974 L-7.1410389750663015,-9.852565979346249 L-7.067999743745656,-9.441684729070516 L-7.001227486377033,-9.026669183785547 L-6.940745133872621,-8.607661868027702 L-6.886573457067016,-8.184806677186153 L-6.838731059584127,-7.758248828086394 L-6.797234371448315,-7.328134809119906 L-6.762097643441994,-6.894612329937161 L-6.7333329422116535,-6.457830270721178 L-6.710950146123896,-6.01793863105917 L-6.694956941873045,-5.575088478429679 L-6.6853588218413655,-5.129431896323055 L-6.682159082212873,-4.681121932012971 L-6.6853588218413655,-4.2303125439969556 L-6.694956941873045,-3.777158549124008 L-6.710950146123896,-3.321815569427446 L-6.7333329422116535,-2.864439978681205 L-6.762097643441997,-2.405188848698018 L-6.797234371448312,-1.9442198953878411 L-6.838731059584127,-1.4816914245950863 L-6.886573457067016,-1.0177622777332727 L-6.940745133872618,-0.5525917772357629 L-7.001227486377033,-0.08633967184126812 L-7.067999743745652,0.38083391826700774 L-7.141038975066305,0.8487685564498162 L-7.22032009722415,1.3173035447089512 L-7.305815883515745,1.7862779788741352 L-7.3974969729992175,2.2555308038606925 L-7.495331880577389,2.724900868978985 " />
			<path d="M20.654589078459054,-0.45752558509546937 L20.752423986037243,-0.0645776404181948 L20.84410507552071,0.33306001738402813 L20.92960086181231,0.7352508316847004 L21.008881983970156,1.141856682213426 L21.081921215290798,1.5527379324891584 L21.148693472659424,1.967753477774128 L21.209175825163832,2.3867607935319732 L21.26334750196944,2.8096159843735222 L21.31118989945233,3.2361738334732806 L21.35268658758814,3.666287852439769 L21.38782331559446,4.099810331622514 L21.416588016824804,4.536592390838496 L21.438970812912558,4.9764840305005045 L21.454964017163412,5.419334183129996 L21.464562137195088,5.8649907652366196 L21.46776187682358,6.313300729546704 L21.464562137195088,6.76411011756272 L21.454964017163412,7.217264112435667 L21.438970812912558,7.672607092132229 L21.416588016824804,8.12998268287847 L21.38782331559446,8.589233812861657 L21.352686587588146,9.050202766171834 L21.31118989945233,9.512731236964589 L21.26334750196944,9.976660383826403 L21.20917582516384,10.441830884323913 L21.148693472659424,10.908082989718407 L21.081921215290805,11.375256579826683 L21.00888198397015,11.84319121800949 L20.929600861812304,12.311726206268627 L20.84410507552071,12.78070064043381 L20.752423986037236,13.249953465420369 L20.654589078459068,13.71932353053866 " />
			<path d="M20.654589078459054,-0.4575255850954685 L-7.495331880577402,-11.451948246655142 " />
			<path d="M-11.17228714274745,-10.015851842733758 L-7.495331880577401,-11.451948246655142 " />
			<path d="M-11.172287142747452,-10.01585184273377 L-11.27012205032563,-9.546481777615421 L-11.36180313980911,-9.07722895262884 L-11.447298926100709,-8.608254518463657 L-11.52658004825855,-8.139719530204527 L-11.599619279579203,-7.6717848920217255 L-11.666391536947822,-7.204611301913448 L-11.726873889452238,-6.738359196518953 L-11.78104556625784,-6.273188696021442 L-11.828887963740728,-5.8092595491596315 L-11.87038465187654,-5.346731078366876 L-11.905521379882858,-4.8857621250567 L-11.934286081113202,-4.426510995073517 L-11.956668877200956,-3.9691354043272797 L-11.972662081451807,-3.5137924246307177 L-11.98226020148349,-3.0606384297577724 L-11.985459941111982,-2.6098290417417553 L-11.98226020148349,-2.1615190774316737 L-11.97266208145181,-1.7158624953250534 L-11.95666887720096,-1.2730123426955604 L-11.934286081113202,-0.8331207030335506 L-11.905521379882858,-0.39633864381757355 L-11.87038465187654,0.037183835365175 L-11.828887963740732,0.4672978543316564 L-11.78104556625784,0.8938557034314147 L-11.726873889452238,1.3167108942729637 L-11.666391536947826,1.7357182100308126 L-11.599619279579203,2.150733755315775 L-11.526580048258554,2.5616150055915075 L-11.447298926100713,2.9682208561202312 L-11.361803139809117,3.3704116704209053 L-11.270122050325634,3.768049328223144 L-11.172287142747502,4.160997272900229 " />
			<path d="M-11.17228714274745,-10.01585184273376 L16.977633816289007,0.9785708188259159 " />
			<path d="M16.977633816289003,0.9785708188259061 L16.879798908710825,1.4479408839442547 L16.788117819227345,1.917193708930836 L16.702622032935746,2.386168143096018 L16.623340910777905,2.8547031313551487 L16.550301679457252,3.32263776953795 L16.483529422088633,3.7898113596462277 L16.423047069584218,4.2560634650407225 L16.368875392778616,4.721233965538234 L16.321032995295727,5.185163112400044 L16.279536307159916,5.6476915831928 L16.244399579153598,6.108660536502976 L16.215634877923254,6.567911666486158 L16.1932520818355,7.025287257232396 L16.17725887758465,7.480630236928958 L16.167660757552966,7.933784231801903 L16.164461017924474,8.38459361981792 L16.167660757552966,8.832903584128001 L16.177258877584645,9.278560166234623 L16.193252081835496,9.721410318864116 L16.215634877923254,10.161301958526124 L16.244399579153598,10.598084017742103 L16.279536307159916,11.031606496924852 L16.321032995295724,11.461720515891333 L16.368875392778616,11.888278364991091 L16.423047069584218,12.31113355583264 L16.48352942208863,12.73014087159049 L16.550301679457252,13.145156416875452 L16.6233409107779,13.556037667151184 L16.702622032935743,13.962643517679908 L16.788117819227338,14.364834331980582 L16.87979890871082,14.76247198978282 L16.977633816288954,15.155419934459903 " />
			<path d="M20.654589078459054,-0.4575255850954678 L16.977633816289007,0.9785708188259168 " />

       </g>

       <!-- solid lines -->
       <g  stroke="rgb(0,0,0)" fill="none">
			<path d="M21.454956641078955,-2.5067722185454 L21.409453058159823,-2.5231972978462753 L21.363088383404886,-2.5372660148154687 L21.315915506134566,-2.5489623209228487 L21.267988237605703,-2.55827287390548 L21.219361249627724,-2.565187052987466 L21.17009001219718,-2.5696969709953317 L21.120230730221746,-2.5717974833551116 L21.06984027940593,-2.5714861939608955 L21.01897614137154,-2.568763457908121 L20.967696338087006,-2.56363238108851 L20.916059365680287,-2.5560988166471033 L20.864124127710912,-2.546171358305431 L20.81194986797725,-2.5338613305584454 L20.759596102935646,-2.519182775756394 L20.70712255380855,-2.5021524380863642 L20.65458907845906,-2.4827897444717815 " />
			<path d="M20.654589078459054,-2.4827897444717797 L-7.495331880577402,-13.477212406031455 " />
			<path d="M-6.694964317957504,-13.501194880105077 L-6.740467900876633,-13.517619959405952 L-6.786832575631571,-13.531688676375145 L-6.83400545290189,-13.543384982482525 L-6.881932721430754,-13.552695535465157 L-6.930559709408733,-13.559609714547143 L-6.979830946839279,-13.564119632555009 L-7.029690228814711,-13.566220144914787 L-7.080080679630528,-13.565908855520572 L-7.130944817664917,-13.563186119467797 L-7.182224620949451,-13.558055042648187 L-7.23386159335617,-13.550521478206779 L-7.285796831325542,-13.540594019865107 L-7.337971091059205,-13.528283992118123 L-7.3903248561008095,-13.51360543731607 L-7.442798405227906,-13.49657509964604 L-7.495331880577396,-13.477212406031459 " />
			<path d="M-8.295699431156429,-13.50119488480784 L-8.25019584876757,-13.51761996322666 L-8.203831174584796,-13.531688679388148 L-8.156658297926114,-13.54338498476363 L-8.108731030045865,-13.552695537091452 L-8.060104042750915,-13.559609715596817 L-8.010832806035175,-13.564119633107174 L-7.96097352480364,-13.566220145049295 L-7.910583074758059,-13.565908855317826 L-7.859718937517447,-13.563186119008577 L-7.808439135047385,-13.55805504201346 L-7.756802163472954,-13.55052147747752 L-7.704866926350765,-13.540594019122109 L-7.652692667476239,-13.528283991441816 L-7.600338903302756,-13.513605436786342 L-7.547865355049779,-13.49657509934205 L-7.495331880577409,-13.477212406031457 " />
			<path d="M-11.972654705367349,-12.065098476183689 L-11.927151122448219,-12.081523555484564 L-11.880786447693282,-12.095592272453757 L-11.833613570422962,-12.107288578561137 L-11.7856863018941,-12.116599131543769 L-11.73705931391612,-12.123513310625754 L-11.687788076485573,-12.12802322863362 L-11.637928794510142,-12.130123740993401 L-11.587538343694325,-12.129812451599184 L-11.536674205659935,-12.12708971554641 L-11.485394402375402,-12.121958638726799 L-11.433757429968683,-12.114425074285393 L-11.38182219199931,-12.10449761594372 L-11.329647932265647,-12.092187588196733 L-11.277294167224044,-12.077509033394684 L-11.224820618096947,-12.060478695724653 L-11.172287142747457,-12.041116002110071 " />
			<path d="M-11.17228714274745,-12.04111600211007 L-7.495331880577401,-13.477212406031454 " />
			<path d="M22.784651797542246,-1.0078280589877022 L22.79881467107311,-0.9388575997450739 L22.806078095216904,-0.8683383641587212 L22.80641869853947,-0.7964972611408486 L22.79983538508552,-0.723565452960897 L22.78634933790507,-0.6497776114374376 L22.766003950892987,-0.5753711628374304 L22.73886468916099,-0.5005855239125239 L22.7050188783913,-0.4256613315306008 L22.664575423849843,-0.350839668381369 L22.617664459963063,-0.27636128724743375 L22.56443693158589,-0.20246583633690973 L22.505064108308297,-0.1293910881702101 L22.439737033363127,-0.05737217450221499 L22.36866590890856,0.013359170258402941 L22.2920794196631,0.08257535469825195 L22.210223997069473,0.1500536627174145 " />
			<path d="M22.80545308677923,14.181691368642605 L22.799420481165008,14.199047825354988 L22.78900050156095,14.215422978879294 L22.774214462624904,14.23078333291247 L22.755092610036115,14.245097466981248 L22.731674058625977,14.258336100714489 L22.704006712366436,14.270472153737842 L22.672147166379688,14.281480801068186 L22.636160591169688,14.29133952389453 L22.552109094875934,14.30752892322132 L22.452539600153724,14.318907954130234 L22.33826639051483,14.32538355842835 L22.210223997069466,14.326902778351611 " />
			<path d="M22.210223997069463,0.15005366271742382 L22.308058904647645,0.5430016073946984 L22.399739994131117,0.9406392651969213 L22.485235780422713,1.3428300794975936 L22.564516902580557,1.7494359300263191 L22.637556133901207,2.1603171803020516 L22.704328391269826,2.575332725587021 L22.76481074377424,2.9943400413448664 L22.818982420579843,3.4171952321864154 L22.86682481806273,3.8437530812861738 L22.908321506198547,4.273867100252662 L22.94345823420487,4.707389579435407 L22.972222935435205,5.14417163865139 L22.994605731522967,5.584063278313398 L23.010598935773814,6.026913430942889 L23.020197055805497,6.472570013049513 L23.02339679543399,6.920879977359597 L23.020197055805497,7.371689365375613 L23.010598935773814,7.82484336024856 L22.994605731522967,8.280186339945121 L22.972222935435205,8.737561930691363 L22.94345823420486,9.19681306067455 L22.908321506198547,9.657782013984727 L22.86682481806273,10.120310484777482 L22.818982420579843,10.584239631639296 L22.76481074377424,11.049410132136806 L22.704328391269826,11.5156622375313 L22.637556133901207,11.982835827639576 L22.564516902580557,12.450770465822384 L22.485235780422713,12.91930545408152 L22.399739994131117,13.388279888246704 L22.308058904647645,13.857532713233262 L22.21022399706947,14.326902778351553 " />
			<path d="M-13.323151151067629,-10.478219680837643 L-13.324623066244238,-10.456705439832135 L-13.320063456909564,-10.43395578791899 L-13.309485100527926,-10.410034476802409 L-13.29291764099232,-10.385008541545444 L-13.270407505552871,-10.3589481127166 L-13.242017774713034,-10.331926219861838 L-13.207828005458111,-10.304018586852752 L-13.167934008311471,-10.275303419684375 L-13.122447578843225,-10.245861187317308 L-13.071496184383765,-10.215774396178286 L-12.953784542475788,-10.154005958306065 L-12.81611761887776,-10.090689999627298 L-12.66003747715948,-10.026535748115661 " />
			<path d="M-13.302349861830645,4.711299746792662 L-13.287668515260368,4.760575341712174 L-13.269354563062562,4.808821320556208 L-13.247439454585642,4.855954833671016 L-13.221960823207409,4.901894941767253 L-13.192962421709712,4.946562754911704 L-13.160494047144681,4.989881567999793 L-13.124611455321496,5.031776992476225 L-13.085376265060615,5.072177084077568 L-13.042855852379805,5.111012466377418 L-12.997123234793731,5.148216449921988 L-12.94825694592577,5.183725146751523 L-12.896340900647367,5.2174775801109075 L-12.841464250976543,5.249415789161041 L-12.783721232982973,5.2794849285111916 L-12.723211004962575,5.3076333624013765 L-12.66003747715948,5.333812753373071 " />
			<path d="M-12.660037477159472,-10.02653574811567 L-12.766039753388439,-9.517982139512087 L-12.86537448383354,-9.009555558378967 L-12.958007554986102,-8.501430608447631 L-13.043907154819651,-7.9937817898632195 L-13.123043783714772,-7.48678343925798 L-13.195390264589848,-6.980609669880611 L-13.260921752234248,-6.475434311802329 L-13.319615741840616,-5.971430852220182 L-13.371452076733503,-5.468772375878136 L-13.41641295529154,-4.9676315056263345 L-13.454482937060893,-4.468180343139018 L-13.485648948057795,-3.970590409811396 L-13.509900285258423,-3.4750325878558215 L-13.527228620274533,-2.9816770616174653 L-13.537628002213586,-2.4906932591296362 L-13.54109485972238,-2.002249793928864 L-13.537628002213582,-1.5165144071496677 L-13.527228620274537,-1.0336539099189483 L-13.509900285258427,-0.5538341260697361 L-13.485648948057799,-0.07721983519404141 L-13.454482937060893,0.3960252839457663 L-13.41641295529154,0.8657387096274132 L-13.371452076733503,1.3317591329819383 L-13.31961574184062,1.7939265133903373 L-13.260921752234248,2.2520821334446417 L-13.195390264589852,2.706068653454661 L-13.123043783714769,3.155730165481499 L-13.043907154819655,3.600912246879446 L-12.958007554986105,4.041462013327749 L-12.86537448383354,4.47722817133411 L-12.766039753388439,4.908061070191904 L-12.660037477159529,5.333812753372863 " />
			<path d="M-11.972654705378737,6.210243906345912 L-12.03297521051183,6.184200790265569 L-12.091485357066901,6.153902097769183 L-12.148062075665294,6.119411558679344 L-12.202586363672175,6.080801719886896 L-12.254943535504928,6.038153792756875 L-12.305023463861112,5.991557482309723 L-12.352720811358596,5.941110798537078 L-12.397935252100666,5.886919850248997 L-12.440571682700027,5.829098621886252 L-12.480540422317869,5.767768733767143 L-12.517757401297215,5.703059186273114 L-12.552144337993802,5.635106088511255 L-12.583628903432531,5.564052372024413 L-12.612144873443171,5.490047490151096 L-12.637632267955293,5.41324710366753 L-12.660037477159472,5.333812753373081 " />
			<path d="M-12.660037477159474,-10.02653574811566 L15.489883481876983,0.9678869134440165 " />
			<path d="M-12.660037477159474,5.333812753373073 L15.489883481876983,16.32823541493275 " />
			<path d="M15.489883481876983,0.9678869134440067 L15.383881205648017,1.4764405220475885 L15.284546475202916,1.984867103180708 L15.191913404050354,2.4929920531120437 L15.106013804216804,3.000640871696456 L15.026877175321683,3.5076392223016954 L14.954530694446607,4.013812991679065 L14.888999206802207,4.518988349757347 L14.83030521719584,5.022991809339493 L14.778468882302953,5.5256502856815395 L14.733508003744916,6.026791155933341 L14.695438021975562,6.526242318420658 L14.66427201097866,7.02383225174828 L14.640020673778032,7.519390073703854 L14.622692338761922,8.01274559994221 L14.61229295682287,8.50372940243004 L14.608826099314076,8.992172867630812 L14.612292956822873,9.477908254410007 L14.622692338761919,9.960768751640728 L14.640020673778029,10.44058853548994 L14.664272010978657,10.917202826365635 L14.695438021975562,11.390447945505443 L14.733508003744916,11.86016137118709 L14.778468882302953,12.326181794541615 L14.830305217195836,12.788349174950014 L14.888999206802207,13.246504795004316 L14.954530694446603,13.700491315014336 L15.026877175321687,14.150152827041175 L15.1060138042168,14.59533490843912 L15.19191340405035,15.035884674887424 L15.284546475202916,15.471650832893786 L15.383881205648017,15.90248373175158 L15.489883481876927,16.32823541493254 " />
			<path d="M17.778001378908904,17.20466656791003 L17.820531178366043,17.186831576990873 L17.86218714293449,17.166890613925638 L17.90292608771796,17.144864351586293 L17.942705778498055,17.120775624682448 L17.981484975518633,17.09464940608855 L18.019223476239215,17.066512780954397 L18.055882157013134,17.036394918625867 L18.09142301364714,17.004327042404938 L18.125809200800518,16.97034239718038 L18.15900507018276,16.93447621496266 L18.190976207510317,16.89676567835876 L18.221689468183996,16.857249882024853 L18.25111301165009,16.815969792136706 L18.279216334409615,16.7729682039199 L18.305970301641395,16.72828969728386 L18.331347177406236,16.68198059060568 L18.377865876231976,16.58466425310659 L18.418579576437764,16.481422639694557 L18.45331948959184,16.372683763297236 L18.48194159303275,16.258898427067535 L18.50432722694994,16.140538355470763 L18.5203835863165,16.018094238637456 L18.53004410563473,15.892073698089481 L18.533268734899412,15.762999182273012 " />
			<path d="M18.533268734899412,15.762999182272997 L22.210223997069463,14.326902778351613 " />
			<path d="M21.45495664107895,15.768570163988647 L21.49748644053609,15.750735173069486 L21.53914240510454,15.730794210004253 L21.57988134988801,15.708767947664906 L21.619661040668102,15.684679220761062 L21.65844023768868,15.658553002167164 L21.696178738409262,15.63041637703301 L21.73283741918318,15.600298514704479 L21.768378275817188,15.56823063848355 L21.802764462970565,15.534245993258995 L21.83596033235281,15.498379811041275 L21.867931469680364,15.460669274437375 L21.898644730354043,15.421153478103466 L21.928068273820138,15.37987338821532 L21.95617159657966,15.336871799998514 L21.982925563811442,15.292193293362471 L22.008302439576283,15.245884186684295 L22.054821138402023,15.148567849185204 L22.09553483860781,15.04532623577317 L22.13027475176189,14.93658735937585 L22.158896855202798,14.82280202314615 L22.181282489119987,14.704441951549375 L22.197338848486545,14.581997834716068 L22.206999367804777,14.455977294168095 L22.21022399706946,14.326902778351625 " />
			<path d="M15.489883481876985,0.9678869134440169 L15.64952629249971,1.0274915397628444 L15.82195950459395,1.0866250327962632 L16.005522492065655,1.1447179046807057 L16.198447442999736,1.2012106893031302 L16.39887638465519,1.2555593302655257 L16.604879076758273,1.3072404204454353 L16.814471600771505,1.3557562426926686 L17.025635466113712,1.4006395631175388 L17.236337049327737,1.4414581308086356 L17.444547178986024,1.4778188406453943 L17.64826067772073,1.5093715191153012 L17.845515673177918,1.535812296676243 L18.034412491920783,1.556886534186308 L18.213131954323323,1.572391275217925 L18.379952894264616,1.5821772006392052 L18.533268734899398,1.5861500666388106 " />
			<path d="M15.489883481876985,16.328235414932752 L15.56800692986929,16.35663520798305 L15.649526292499711,16.382141168225402 L15.73424518248342,16.404691849567524 L15.82195950459395,16.42423292544285 L15.912457947346466,16.440717319688012 L16.005522492065655,16.454105319953406 L16.10092893811179,16.464364673373737 L16.198447442999736,16.47147066426801 L16.2978430761096,16.475406173681748 L16.398876384655193,16.476161720628056 L16.501303970546754,16.47373548492817 L16.604879076758273,16.468133311596404 L16.709352181786784,16.459368696759 L16.81447160077151,16.4474627551408 L16.919984091824734,16.432444169197993 L17.025635466113712,16.41434912001959 L17.13117120022382,16.393221200164 L17.236337049327737,16.369111308640747 L17.34087965968354,16.34207752829028 L17.444547178986024,16.312184985857346 L17.547089863100993,16.279505695094947 L17.64826067772073,16.244118383276895 L17.747815893491307,16.20610830153692 L17.845515673177918,16.165567019491224 L17.941124649453812,16.122592204639254 L18.034412491920783,16.077287387074136 L18.125154461995276,16.02976171006962 L18.213131954323327,15.980129667144366 L18.298133023419997,15.928510826237032 L18.379952894264616,15.875029541656644 L18.458394455621747,15.819814654502164 L18.533268734899398,15.762999182273008 " />
			<path d="M18.533268734899412,1.5861500666387993 L18.435433827321233,2.055520131757148 L18.343752737837754,2.524772956743729 L18.258256951546155,2.9937473909089114 L18.178975829388314,3.462282379168042 L18.10593659806766,3.9302170173508433 L18.039164340699042,4.397390607459121 L17.978681988194626,4.863642712853616 L17.924510311389025,5.328813213351127 L17.876667913906136,5.792742360212937 L17.835171225770324,6.255270831005693 L17.800034497764006,6.716239784315869 L17.771269796533662,7.1754909142990515 L17.748887000445908,7.632866505045289 L17.732893796195057,8.088209484741851 L17.723295676163374,8.541363479614796 L17.720095936534882,8.992172867630813 L17.723295676163374,9.440482831940894 L17.732893796195054,9.886139414047516 L17.748887000445905,10.32898956667701 L17.771269796533662,10.768881206339017 L17.800034497764006,11.205663265554996 L17.835171225770324,11.639185744737745 L17.876667913906132,12.069299763704226 L17.924510311389025,12.495857612803984 L17.978681988194626,12.918712803645533 L18.03916434069904,13.337720119403382 L18.10593659806766,13.752735664688345 L18.17897582938831,14.163616914964077 L18.25825695154615,14.570222765492801 L18.343752737837747,14.972413579793475 L18.43543382732123,15.370051237595714 L18.533268734899362,15.762999182272797 " />
			<path d="M16.177266255910226,17.204666568785342 L16.116945750576036,17.17862345279789 L16.058435603823884,17.14832476037277 L16.001858885033407,17.113834221332713 L15.947334596840385,17.075224382568795 L15.894977424828358,17.03257645544636 L15.844897496300652,16.985980144986254 L15.797200148640242,16.93553346118059 L15.751985707744645,16.88134251283998 L15.709349277001916,16.823521284405835 L15.669380537251582,16.762191396197164 L15.632163558151284,16.69748184859619 L15.5977766213459,16.629528750710858 L15.56629205581109,16.55847503408493 L15.537776085717592,16.48447015205789 L15.512288691136286,16.407669765407014 L15.489883481876987,16.32823541493276 " />
			<path d="M15.489883481876985,0.9678869134440165 L15.50915825152109,0.8837187097819315 L15.530761346484859,0.7997008978406297 L15.5546585142181,0.7159666911399907 L15.580811864828714,0.6326488535327224 L15.609179931158591,0.5498794887020849 L15.639717734531418,0.46778983070633984 L15.672376856068116,0.3865100359020397 L15.707105513456865,0.3061689765760398 L15.743848643055987,0.22689403661345198 L15.782547987199486,0.14881090952553422 L15.823142186566866,0.07204339915771785 L15.865566877470718,-0.0032867766062270043 L15.90975479390786,-0.0770601788326355 L15.955635874212213,-0.14915983691304535 L16.00313737214031,-0.21947143402566383 L16.052183972213285,-0.2878834883891441 L16.10269790913254,-0.35428753002130287 L16.15459909107963,-0.41857827272251513 L16.20780522670497,-0.4806537810110856 L16.262231955603994,-0.5404156317459354 L16.31779298207387,-0.5977690701803395 L16.37440021193869,-0.652623160199266 L16.431963892226232,-0.7048909285021414 L16.490392753474804,-0.7544895025024154 L16.54959415444453,-0.8013402417252737 L16.609474229003663,-0.8453688624951854 L16.669938034956985,-0.8865055557155705 L16.73088970458037,-0.9246850975538428 L16.792232596622807,-0.9598469528563442 L16.853869449534876,-0.9919353711291958 L16.915702535680712,-1.0208994749328772 L16.977633816288993,-1.0466933405503893 " />
			<path d="M16.977633816289003,-1.0466933405503982 L17.05396520384774,-1.0144413205145535 L17.130112702408006,-0.9773879596677923 L17.205892865976036,-0.9356225228018844 L17.28112313350024,-0.8892456265124606 L17.355622268676758,-0.8383689968048185 L17.4292107965636,-0.7831151999361889 L17.50171143595148,-0.7236173471428908 L17.572949526449822,-0.6600187739636998 L17.642753449258883,-0.592472694931981 L17.710955040614525,-0.5211418344684595 L17.777389996909413,-0.44619803486383813 L17.841898270514815,-0.3678218422956654 L17.904324455349364,-0.2862020718767819 L17.964518161265904,-0.20153535278317425 L18.022334376354532,-0.11402565455706726 L18.077633816289005,-0.023883795726431067 L18.130283259874854,0.06867306407531615 L18.180155869990937,0.16342194726588644 L18.22713149915116,0.2601345954866533 L18.271096978950297,0.3585780194970256 L18.31194639269659,0.4585150604659367 L18.349581330574342,0.5597049613082417 L18.383911126721767,0.6619039466896226 L18.414853077653017,0.7648658103027219 L18.4423326414981,0.8683425079997018 L18.466283617580793,0.9720847553523217 L18.486648305901845,1.0758426281999616 L18.503377646143367,1.179366164738817 L18.51643133585939,1.282405967701773 L18.525777927568026,1.3847138051782695 L18.531394904511178,1.4860432086267188 L18.53326873489941,1.5861500666387882 " />
			<path d="M20.654589078459054,-2.482789744471778 L16.977633816289007,-1.0466933405503933 " />
			<path d="M20.65458907845905,-2.4827897444717832 L20.730920466017785,-2.4505377244359385 L20.807067964578053,-2.413484363589177 L20.882848128146083,-2.3717189267232692 L20.958078395670288,-2.3253420304338457 L21.032577530846805,-2.2744654007262035 L21.106166058733645,-2.2192116038575738 L21.17866669812153,-2.1597137510642757 L21.24990478861987,-2.0961151778850846 L21.31970871142893,-2.0285690988533656 L21.387910302784572,-1.9572382383898443 L21.45434525907946,-1.882294438785223 L21.51885353268486,-1.8039182462170502 L21.58127971751941,-1.7222984757981668 L21.64147342343595,-1.637631756704559 L21.69928963852458,-1.550122058478452 L21.754589078459052,-1.459980199647816 L21.8072385220449,-1.3674233398460687 L21.857111132160984,-1.2726744566554984 L21.904086761321206,-1.1759618084347316 L21.948052241120344,-1.0775183844243592 L21.988901654866638,-0.9775813434554481 L22.02653659274439,-0.8763914426131432 L22.060866388891814,-0.7741924572317622 L22.091808339823064,-0.6712305936186629 L22.11928790366815,-0.567753895921683 L22.14323887975084,-0.4640116485690631 L22.163603568071892,-0.3602537757214233 L22.180332908313414,-0.25673023918256793 L22.193386598029438,-0.15369043621961181 L22.202733189738073,-0.05138259874311546 L22.208350166681225,0.04994680470533397 L22.210223997069455,0.1500536627174035 " />
			<path d="M22.21022399706946,0.15005366271742537 L18.533268734899412,1.58615006663881 " />
			<path d="M-12.660037477159472,-10.02653574811566 L-12.640762707515368,-10.110703951777744 L-12.619159612551599,-10.194721763719045 L-12.595262444818356,-10.278455970419685 L-12.569109094207743,-10.361773808026953 L-12.540741027877866,-10.44454317285759 L-12.51020322450504,-10.526632830853336 L-12.477544102968341,-10.607912625657635 L-12.442815445579592,-10.688253684983636 L-12.40607231598047,-10.767528624946223 L-12.367372971836971,-10.845611752034142 L-12.326778772469591,-10.922379262401957 L-12.28435408156574,-10.997709438165902 L-12.240166165128597,-11.07148284039231 L-12.194285084824244,-11.143582498472721 L-12.146783586896149,-11.213894095585339 L-12.09773698682317,-11.28230614994882 L-12.047223049903916,-11.348710191580977 L-11.995321867956829,-11.41300093428219 L-11.942115732331489,-11.47507644257076 L-11.887689003432463,-11.53483829330561 L-11.832127976962587,-11.592191731740014 L-11.775520747097769,-11.64704582175894 L-11.717957066810227,-11.699313590061816 L-11.659528205561655,-11.74891216406209 L-11.600326804591926,-11.795762903284949 L-11.540446730032794,-11.83979152405486 L-11.479982924079474,-11.880928217275246 L-11.419031254456087,-11.919107759113517 L-11.357688362413649,-11.954269614416019 L-11.296051509501583,-11.986358032688871 L-11.234218423355745,-12.015322136492552 L-11.172287142747464,-12.041116002110064 " />
			<path d="M-11.17228714274745,-12.04111600211007 L16.977633816289007,-1.0466933405503935 " />
			<path d="M21.454956641078955,-2.506772218545401 L-6.6949643179575045,-13.501194880105075 " />
			<path d="M-8.295699410692556,-13.50119489280035 L-8.177061120777745,-13.543656936472123 L-8.056186354849267,-13.579256935747829 L-7.9334716537898,-13.607878101527373 L-7.809319594559903,-13.629426539421353 L-7.684137469506951,-13.643831557780297 L-7.558335950204805,-13.651045899605187 L-7.43232774020762,-13.65104589757842 L-7.306526221137552,-13.643831551706644 L-7.181344096547992,-13.629426529320737 L-7.057192038011283,-13.607878087432931 L-6.934477337872526,-13.579256917705798 L-6.813602573089257,-13.543656914541696 L-6.6949642845404,-13.501194867053467 " />
			<path d="M-11.972654705367349,-12.065098476183689 L-8.2956994431973,-13.501194880105073 " />
			<path d="M22.784651797542246,-1.007828058987703 L22.89116387913112,-0.5801343421111828 L22.990874119603745,-0.14798977990231543 L23.08376942311906,0.28847132630116423 L23.16983792355343,0.7291136868464594 L23.24906898450062,1.173801023765712 L23.321453199271815,1.622396070776001 L23.386982390895604,2.0747605732793453 L23.445650778521156,2.530756299183818 L23.497456971640784,2.990246117632158 L23.542396301569045,3.453086975491198 L23.5804653152265,3.9191344319857606 L23.611662319080757,4.388243165546232 L23.63598737914648,4.860266973808558 L23.653442320985395,5.33505877361425 L23.66403072970627,5.812470601010379 L23.66775794996493,6.292353611249578 L23.66463108596426,6.774558078790045 L23.654659001454196,7.258933397295537 L23.637852319731728,7.745328079635374 L23.614223423640894,8.233589757884438 L23.583786455572795,8.723565183323178 L23.546557317465588,9.215100226437595 L23.50255367080447,9.708039876919262 L23.451794936621702,10.202228243665306 L23.3943022954966,10.697508554778427 L23.330098687555534,11.193723157566872 L23.259208812471922,11.690713518544467 L23.181659129466244,12.188320223430587 L23.09747785730602,12.686382977150174 L23.006694974305844,13.184740603833735 L22.909342218327353,13.683231046817337 L22.80545308677924,14.181691368642568 " />
			<path d="M-13.32315115106763,-10.478219680837645 L-13.427040281597392,-9.979759356149682 L-13.524393037244565,-9.481268911718697 L-13.615175920403281,-8.982911284651363 L-13.699357193037784,-8.484848531298143 L-13.776906876682423,-7.9872418272532935 L-13.847796752441658,-7.490251467354863 L-13.91200036099006,-6.994036865684691 L-13.969493002572303,-6.498756555568412 L-14.020251737003179,-6.0045681895754495 L-14.064255383667579,-5.511628539519021 L-14.101484521520508,-5.020093496456136 L-14.131921489087082,-4.530118070687594 L-14.155550384462522,-4.04185639175799 L-14.17235706531216,-3.5554617084557076 L-14.182329148871437,-3.071086388812927 L-14.1854560119459,-2.5888819201056155 L-14.181728790911212,-2.108998908853536 L-14.171140381713135,-1.6315870808202408 L-14.153685439867548,-1.1567952810130784 L-14.129360380460438,-0.6847714736831847 L-14.098163378147895,-0.21566274232549176 L-14.060094367156125,0.2503847103212795 L-14.01515504128144,0.713225562274614 L-13.963348853890261,1.172715372308204 L-13.904680468183464,1.6287110924091368 L-13.839151271996643,2.081075597020078 L-13.766767054321749,2.529670646838216 L-13.687535991504475,2.974357987207466 L-13.601467489779234,3.415000351635135 L-13.508572185269157,3.851461461791926 L-13.408861943986103,4.2836060275119365 L-13.30234986183065,4.711299746792629 " />
			<path d="M-11.972654708025141,6.210243905312316 L-12.092300605701379,6.159390434413828 L-12.208733828467118,6.101558600882804 L-12.321547793040054,6.036950352721195 L-12.430348554539894,5.9657913010817065 L-12.534756182138674,5.888329932436616 L-12.634406085774229,5.804836740866281 L-12.72895028929389,5.715603283497371 L-12.818058645582628,5.620941162389214 L-12.901419989432442,5.521180936423506 L-12.978743224127168,5.416670966997042 L-13.049758337948386,5.307776201548306 L-13.114217347052787,5.194876899165806 L-13.171895161428491,5.078367302728354 L-13.22259037090641,4.958654262214106 L-13.266125948481905,4.836155813985794 L-13.302349868490765,4.711299721013253 " />
			<path d="M17.778001378908908,17.20466656791003 L21.454956641078958,15.768570163988647 " />
			<path d="M22.805453083817074,14.181691382422107 L22.775009814413217,14.305681699694405 L22.737425287160015,14.427697250918152 L22.69282608108762,14.547327106083966 L22.641362399608514,14.664168369847664 L22.583207564655027,14.777827538421139 L22.518557432957174,14.887921824833885 L22.447629736426652,14.994080448101876 L22.37066334886855,15.095945881962127 L22.287917481490325,15.193175058967316 L22.199670809917478,15.28544052588531 L22.106220535655996,15.372431546512352 L22.00788138516241,15.45385514818583 L21.904984549892482,15.529437108472095 L21.79787657089822,15.598922878706343 L21.686918171729797,15.662078441274193 L21.572483043572912,15.718691097747799 L21.45495658671315,15.768570185222124 " />
			<path d="M17.77800143327513,17.2046665466764 L17.659363141172012,17.247128596677328 L17.538488372628574,17.28272860191604 L17.415773668562466,17.311349773265114 L17.2916216059709,17.33289821631062 L17.166439477239383,17.34730323938149 L17.040637953981182,17.354517585460094 L16.914629739790893,17.3545175872133 L16.788828216331936,17.347303244635363 L16.663646087199574,17.332898225047927 L16.53949402400838,17.311349785457185 L16.41677931914583,17.282728617522878 L16.29590454961176,17.247128615647735 L16.17726625632705,17.20466656894814 " />
			<path d="M-13.323151148099036,-10.478219694647072 L-13.292707879456135,-10.602210009160897 L-13.255123353281332,-10.724225557723845 L-13.210524148595471,-10.843855410353905 L-13.159060468799636,-10.960696671733492 L-13.100905635812724,-11.074355838100159 L-13.036255506349347,-11.184450122507979 L-12.965327812303924,-11.290608743996298 L-12.88836142746247,-11.392474176324141 L-12.80561556301168,-11.489703352064721 L-12.717368894554705,-11.581968818004835 L-12.623918623573722,-11.668959837957944 L-12.525579476500118,-11.750383439276831 L-12.42268264476329,-11.82596539954133 L-12.315574669387825,-11.895451170098113 L-12.204616273895537,-11.958606733342204 L-12.090181149443007,-12.015219390853007 L-11.972654696286073,-12.065098479730535 " />
			<path d="M21.454956607661156,-2.5067722315972807 L21.57460250659151,-2.4559187626398584 L21.691035730713445,-2.398086930951523 L21.803849696737455,-2.3334786845290205 L21.912650459775772,-2.2623196345203525 L22.017058088992762,-2.1848582673936106 L22.116707994318396,-2.101365077225495 L22.211252199591982,-2.012131621139549 L22.300360557690368,-1.9174695011925145 L22.383721903397337,-1.8177092762640403 L22.46104513998847,-1.7131993077494165 L22.532060255737093,-1.6043045430861582 L22.596519266791653,-1.4914052413623444 L22.654197083132097,-1.374895645456879 L22.704892294581246,-1.2551826053485327 L22.74842787412651,-1.1326841574011621 L22.78465179609587,-1.007828064586217 " />
			<path d="M-11.97265470536735,6.210243906350359 L16.177266253669107,17.204666567910035 " />

       </g>
    </g>
    
</svg>
