<?xml version="1.0" encoding="UTF-8" standalone="no"?>
<svg
   xmlns:svg="http://www.w3.org/2000/svg"
   xmlns="http://www.w3.org/2000/svg"
   width="600.0"
   height="400.0"

>
    <g transform="scale(9.941629182638916, -9.941629182638916)   translate(15.191333980340113,-18.361291287765358)" stroke-width="0.1"  fill="none">
       <!-- hidden lines -->
       <g  stroke="rgb(160,160,160)" fill="none" stroke-dasharray="0.1,0.1" >
			<path d="M-10.20488775240098,-12.755529439607432 L-10.247417551858117,-12.737694448688272 L-10.289073516426566,-12.717753485623039 L-10.329812461210038,-12.695727223283692 L-10.369592151990132,-12.671638496379847 L-10.408371349010705,-12.645512277785949 L-10.44610984973129,-12.617375652651795 L-10.482768530505208,-12.587257790323264 L-10.518309387139217,-12.555189914102336 L-10.552695574292592,-12.52120526887778 L-10.585891443674836,-12.485339086660058 L-10.617862581002393,-12.44762855005616 L-10.64857584167607,-12.408112753722252 L-10.677999385142165,-12.366832663834105 L-10.706102707901689,-12.3238310756173 L-10.732856675133469,-12.279152568981257 L-10.75823355089831,-12.23284346230308 L-10.80475224972405,-12.135527124803989 L-10.84546594992984,-12.032285511391954 L-10.880205863083916,-11.923546634994635 L-10.908827966524827,-11.809761298764933 L-10.931213600442014,-11.69140122716816 L-10.947269959808573,-11.568957110334853 L-10.956930479126804,-11.442936569786882 L-10.960155108391486,-11.313862053970396 " />
			<path d="M-10.960155108391486,-11.313862053970395 L-10.960155108391486,-6.594128939237939 " />
			<path d="M-10.960155108391486,-6.59412893923794 L-10.111626970967631,-6.262722076794543 " />
			<path d="M-10.11162697096763,-10.982455191526999 L-10.11162697096763,-6.262722076794544 " />
			<path d="M-9.404520189781081,-11.626857424055823 L-9.45225065545226,-11.643399711003376 L-9.499763393986472,-11.655667248525665 L-9.54684167143015,-11.663604077063429 L-9.593270735666025,-11.667173992005422 L-9.638838796025682,-11.666360708839257 L-9.683337989393195,-11.661167937434778 L-9.726565328392823,-11.651619365121137 L-9.768323627335576,-11.637758548634745 " />
			<path d="M-9.768323627335581,-11.637758548634741 L-9.806589883710847,-11.620587660460018 L-9.843189263512468,-11.599626301713112 L-9.877970035212995,-11.574961372745816 L-9.910788006762052,-11.546695127950606 L-9.941507123369151,-11.514944751840481 L-9.97000003155153,-11.479841873232386 L-9.99614860710863,-11.441532019548317 L-10.019844444834368,-11.4001740134964 L-10.040989307936977,-11.355939314633176 L-10.059495535303245,-11.309011308536798 L-10.075286404918733,-11.259584546538015 L-10.088296451937328,-11.207863939160879 L-10.098471740081505,-11.15406390661689 L-10.105770085248123,-11.098407489874479 L-10.110161230392773,-11.041125425989037 L-10.11162697096763,-10.982455191526999 " />
			<path d="M18.745400769255376,-0.6324347624961488 L-9.404520189781083,-11.626857424055823 " />
			<path d="M18.745400769255372,-0.6324347624961525 L18.780096854509342,-0.6177747533889506 L18.81470935385492,-0.6009323166404226 L18.883350458896842,-0.5608676197516356 L18.95066303301655,-0.5126265167624212 L19.01599881932847,-0.4566735958658352 L19.078728598494244,-0.3935477142770897 L19.138248248448924,-0.32385680874400136 L19.19398456242669,-0.24827204078377807 L19.245400769255372,-0.16752133303071298 L19.292001702756252,-0.08238235894329593 L19.333338570465052,0.006324946616312721 L19.369013275748706,0.09774628380322911 L19.39868225169356,0.19100121516435653 L19.422059769842548,0.28519164473235636 L19.438920691916447,0.3794104671807632 L19.449102638018562,0.4727503037441507 L19.45250755044192,0.5643122407716594 " />
			<path d="M19.452507550441922,2.028025883230006 L19.452507550441922,0.5643122407716694 " />
			<path d="M19.452507550441926,2.028025883230004 L20.30103568786578,2.359432745673401 " />
			<path d="M-10.960155108391488,-1.856746053068667 L-11.017147175862737,-1.8385360204222883 L-11.074013757099658,-1.8226985981670785 L-11.130698972543001,-1.8092493488382941 L-11.187147120851382,-1.7982014882493047 L-11.243302733635819,-1.7895658725051726 L-11.29911062996538,-1.7833509873349689 L-11.354515970590336,-1.7795629397533341 L-11.409464311829588,-1.7782054520594568 L-11.463901659069368,-1.7792798581793874 L-11.517774519820696,-1.7827851023552581 L-11.571029956283391,-1.7887177401827241 L-11.623615637365054,-1.797071941995576 L-11.675479890103853,-1.8078394985942285 L-11.726571750444615,-1.8210098293124295 L-11.776841013318297,-1.8365699924142818 L-11.826238281975659,-1.8545046978113517 " />
			<path d="M-11.826238281975666,-1.8545046978113544 L-11.887980612164831,-1.8808344713326997 L-11.948122590645323,-1.9109661969722183 L-12.006567828002543,-1.9448515826805224 L-12.063222654185108,-1.9824363204256121 L-12.117996268629623,-2.023660173232243 L-12.170800885786544,-2.068457071723587 L-12.221551875813883,-2.1167552200104787 L-12.270167900213266,-2.168477210758522 L-12.316571042190962,-2.2235401492486577 L-12.360686931534957,-2.28185578623234 L-12.402444863807926,-2.3433306593684122 L-12.441777913665069,-2.4078662430149906 L-12.478623042115226,-2.475359106136295 L-12.512921197553316,-2.5457010780713327 L-12.544617410402216,-2.6187794218987777 L-12.573660881212383,-2.6944770151201864 L-12.600005062078012,-2.7726725373719594 L-12.623607731239261,-2.8532406648652167 L-12.644431060750982,-2.9360522712419606 L-12.66244167710947,-3.020974634525595 L-12.677610714740108,-3.107871649834143 L-12.689913862260166,-3.1966040475152386 L-12.69933140144259,-3.287029616353283 L-12.705848238818364,-3.37900343149105 L-12.709453929866779,-3.472378086700425 L-12.710142695754845,-3.5670039306300376 L-12.707913432599012,-3.6627293066511517 L-12.70276971323436,-3.759400795917405 L-12.694719781488429,-3.8568634632488457 L-12.68377653896885,-3.9549611054462046 L-12.669957524385966,-4.053536501637416 L-12.653284885443592,-4.152431665255156 L-12.633785343342922,-4.251488097241555 L-12.611490149956534,-4.350547040074296 L-12.586435037741074,-4.4494497322069275 L-12.558660162468938,-4.548037662515654 L-12.52821003887069,-4.6461528243447425 L-12.495133469291417,-4.743637968743451 L-12.459483465475317,-4.840336856488569 L-12.421317163603886,-4.936094508488664 L-12.380695732723897,-5.030757454168735 L-12.337684276711899,-5.124173977437151 L-12.292351729932387,-5.2161943598406975 L-12.244770746756839,-5.3066711205180095 L-12.195017585120729,-5.395459252566811 L-12.143171984305098,-5.482416455446156 L-12.089317037138589,-5.567403363041194 L-12.033539056824743,-5.650283767024927 L-11.975927438608046,-5.730924835158985 L-11.916574516500345,-5.809197324183569 L-11.85557541529735,-5.884975786955325 L-11.793027898122329,-5.958138773501207 L-11.729032209741368,-6.028569025666073 L-11.663690915901316,-6.096153665042069 L-11.597108738947885,-6.160784373878606 L-11.529392389987374,-6.222357568682973 L-11.460650397861032,-6.28077456623337 L-11.390992935206118,-6.335941741738284 L-11.320531641882463,-6.3877706788887405 L-11.249379446047513,-6.436178311562921 L-11.177650383166627,-6.481087056956044 L-11.105459413248694,-6.522424939922163 L-11.032922236599974,-6.560125708328571 L-10.9601551083915,-6.594128939237933 " />
			<path d="M-10.960155108391486,-1.856746053068668 L-10.960155108391486,2.862987061663791 " />
			<path d="M-9.333809511662427,-1.274995845789177 L-10.040916292848975,-1.551168231158674 " />
			<path d="M-10.040916292848975,-1.5511682311586745 L-10.111626970967624,-1.5253391906252745 " />
			<path d="M-10.960155108391486,-1.8567460530686681 L-10.111626970967631,-1.525339190625272 " />
			<path d="M-10.040916292848994,-6.292127513335032 L-10.111626970967619,-6.262722076794549 " />
			<path d="M-9.333809511662427,-6.015955127965543 L-10.040916292848975,-6.29212751333504 " />
			<path d="M-9.333809511662427,-1.274995845789177 L-9.39529755667377,-1.2523326930357417 L-9.456715460765713,-1.2323994568992296 L-9.517993163030317,-1.2152188757104656 L-9.579060762491308,-1.200810547779335 L-9.639848597841825,-1.1891909090385133 L-9.700287326908779,-1.180373214294594 L-9.760308005753176,-1.174367522108005 L-9.819842167316155,-1.1711806833189615 L-9.87882189952103,-1.170816333232549 L-9.937179922742274,-1.173274887471837 L-9.994849666553028,-1.1785535415037707 L-10.051765345663616,-1.1866462738383685 L-10.107862034964446,-1.1975438528975846 L-10.163075743587662,-1.2112338475459956 L-10.2173434879031,-1.227700641271301 L-10.270603363365256,-1.246925449998459 " />
			<path d="M-10.270603363365263,-1.2469254499984617 L-10.33326963522767,-1.2736837509833188 L-10.394285145842627,-1.3043594287522202 L-10.45354911876289,-1.338901817731915 L-10.51096367047359,-1.3772538658842324 L-10.56643397206183,-1.4193522289362401 L-10.619868405841128,-1.4651273750030058 L-10.671178716672058,-1.5145036994301346 L-10.72028015772909,-1.5673996496664215 L-10.767091630472938,-1.6237278599603568 L-10.811535818597216,-1.6833952956580331 L-10.853539315728117,-1.7463034068641 L-10.89303274666629,-1.8123482912119886 L-10.92995088197057,-1.8814208654745626 L-10.964232745694396,-1.9534070457317456 L-10.995821716096895,-2.0281879357975696 L-11.024665619162363,-2.105640023595406 L-11.050716814773615,-2.1856353851570463 L-11.073932275396935,-2.268041895908705 L-11.094273657148623,-2.3527234488949595 L-11.111707363125792,-2.4395401795801988 L-11.126204598896777,-2.5283486968562965 L-11.137741420059555,-2.6190023198749577 L-11.146298771789581,-2.7113513203135695 L-11.151862520311747,-2.8052431696744256 L-11.15442347624447,-2.9005227912088674 L-11.153977409777365,-2.997032816050251 L-11.150525057657422,-3.0946138431326995 L-11.144072121972156,-3.193104702466337 L-11.134629260731739,-3.292342721334184 L-11.12221207026566,-3.392163992971021 L-11.106841059463008,-3.4924036472804776 L-11.088541615898906,-3.5928961231432153 L-11.067343963903042,-3.693475441866435 L-11.043283114639571,-3.7939754813230713 L-11.016398808280817,-3.8942302503278934 L-10.986735448370313,-3.9940741627973293 L-10.954342028483543,-4.093342311240215 L-10.919272051307566,-4.191870739127731 L-10.881583440273152,-4.28949671169268 L-10.841338443885366,-4.386058984710851 L-10.798603532910647,-4.481398070820511 L-10.75344929059018,-4.575356502940178 L-10.705950296060857,-4.667779094349584 L-10.656185001176453,-4.7585131950042765 L-10.604235600932368,-4.847408943660522 L-10.550187897708037,-4.93431951539406 L-10.49413115955117,-5.019101364103922 L-10.436157972737927,-5.101614459600771 L-10.37636408885251,-5.181722518888174 L-10.314848266638794,-5.259293231254817 L-10.251712108885144,-5.334198476805875 L-10.187059894611878,-5.406314538072617 L-10.120998406838517,-5.475522304350722 L-10.05363675621529,-5.541707468429829 L-9.985086200810224,-5.604760715389368 L-9.915459962349415,-5.664577903148878 L-9.844873039214033,-5.721060234474576 L-9.773442016502916,-5.774114420158099 L-9.701284873474439,-5.823652833097898 L-9.62852078868574,-5.869593653028799 L-9.555269943151089,-5.911861001660682 L-9.481653321844572,-5.950385068003088 L-9.407792513874908,-5.985102223668736 L-9.333809511662443,-6.015955127965537 " />
			<path d="M-9.404520189781081,-6.5406826601675885 L-10.040916292848975,-6.292127513335041 " />
			<path d="M-9.404520189781081,-11.258627576896494 L-9.404520189781081,-6.5406826601675885 " />
			<path d="M-8.697413408594533,-11.90302980942532 L-8.745143874265713,-11.919572096372873 L-8.792656612799924,-11.931839633895162 L-8.839734890243601,-11.939776462432926 L-8.886163954479477,-11.943346377374919 L-8.931732014839135,-11.942533094208754 L-8.976231208206645,-11.937340322804275 L-9.019458547206275,-11.927791750490634 L-9.061216846149028,-11.913930934004242 " />
			<path d="M-9.061216846149033,-11.913930934004238 L-9.0994831025243,-11.896760045829515 L-9.13608248232592,-11.875798687082609 L-9.170863254026447,-11.851133758115314 L-9.203681225575504,-11.822867513320103 L-9.234400342182603,-11.791117137209978 L-9.262893250364982,-11.756014258601883 L-9.289041825922082,-11.717704404917814 L-9.31273766364782,-11.676346398865897 L-9.333882526750429,-11.632111700002675 L-9.352388754116697,-11.585183693906295 L-9.368179623732185,-11.535756931907512 L-9.381189670750782,-11.484036324530376 L-9.391364958894957,-11.430236291986388 L-9.398663304061575,-11.374579875243976 L-9.403054449206225,-11.317297811358534 L-9.404520189781081,-11.258627576896496 " />
			<path d="M19.452507550441922,-0.9086071478656459 L-8.697413408594535,-11.90302980942532 " />
			<path d="M19.45250755044192,-0.9086071478656496 L19.487203635695888,-0.8939471387584477 L19.521816135041465,-0.8771047020099196 L19.59045724008339,-0.8370400051211326 L19.657769814203096,-0.7887989021319183 L19.723105600515016,-0.7328459812353323 L19.78583537968079,-0.6697200996465867 L19.84535502963547,-0.6000291941134984 L19.901091343613235,-0.5244444261532751 L19.95250755044192,-0.44369371840021 L19.9991084839428,-0.358554744312793 L20.0404453516516,-0.2698474387531843 L20.076120056935252,-0.17842610156626793 L20.105789032880107,-0.0851711702051405 L20.129166551029094,0.009019259362859355 L20.146027473102993,0.1032380818112662 L20.15620941920511,0.1965779183746537 L20.159614331628465,0.28813985540216236 " />
			<path d="M20.159614331628468,1.751853497860509 L20.159614331628468,0.28813985540217235 " />
			<path d="M20.159614331628468,1.75185349786051 L19.452507550441922,2.028025883230007 " />
			<path d="M16.510943340705886,2.149541732792584 L18.674690091136718,2.994629232023244 " />
			<path d="M18.84439571862149,1.2381728610732434 L20.15961433162847,1.7518534978605071 " />
			<path d="M18.84439571862149,1.2381728610732436 L16.510943340705886,2.1495417327925836 " />
			<path d="M-9.404520189781081,5.495830468852995 L-9.480851577339816,5.463578448817151 L-9.556999075900082,5.42652508797039 L-9.632779239468114,5.384759651104481 L-9.708009506992319,5.338382754815058 L-9.782508642168837,5.287506125107416 L-9.856097170055675,5.232252328238786 L-9.92859780944356,5.172754475445489 L-9.999835899941898,5.109155902266297 L-10.069639822750961,5.0416098232345785 L-10.137841414106603,4.970278962771056 L-10.20427637040149,4.895335163166435 L-10.268784644006894,4.816958970598262 L-10.331210828841442,4.735339200179379 L-10.391404534757982,4.6506724810857705 L-10.44922074984661,4.5631627828596635 L-10.504520189781081,4.4730209240290275 L-10.55716963336693,4.380464064227282 L-10.607042243483015,4.285715181036712 L-10.654017872643239,4.189002532815945 L-10.697983352442376,4.0905591088055715 L-10.73883276618867,3.99062206783666 L-10.77646770406642,3.8894321669943555 L-10.810797500213846,3.7872331816129736 L-10.841739451145095,3.684271317999874 L-10.869219014990179,3.5807946203028935 L-10.89316999107287,3.4770523729502734 L-10.913534679393925,3.3732945001026335 L-10.930264019635445,3.2697709635637793 L-10.943317709351469,3.1667311606008246 L-10.952664301060102,3.0644233231243283 L-10.958281278003257,2.9630939196758783 L-10.960155108391486,2.8629870616638 " />
			<path d="M-9.404520189781083,5.495830468852997 L18.745400769255376,16.490253130412672 " />
			<path d="M18.745400769255376,16.49025313041267 L18.797934244604875,16.509615824027254 L18.850407793731968,16.526646161697283 L18.902761558773573,16.541324716499336 L18.954935818507234,16.55363474424632 L19.00687105647661,16.563562202587992 L19.058508028883328,16.571095767029398 L19.10978783216786,16.57622684384901 L19.16065197020225,16.578949579901785 L19.211042421018067,16.579260869296 L19.2609017029935,16.577160356936222 L19.310172940424046,16.572650438928356 L19.358799928402025,16.565736259846368 L19.406727196930888,16.556425706863738 L19.453900074201208,16.54472940075636 L19.500264748956145,16.530660683787165 L19.54576833187527,16.51423560448629 " />
			<path d="M19.452507550441922,14.741161356405854 L19.452507550441922,13.277447713947518 " />
			<path d="M18.745400769255376,15.38556358893468 L18.793131234926555,15.402105875882233 L18.840643973460768,15.414373413404522 L18.887722250904446,15.422310241942286 L18.93415131514032,15.42588015688428 L18.979719375499975,15.425066873718114 L19.02421856886749,15.419874102313635 L19.067445907867118,15.410325529999994 L19.109204206809874,15.3964647135136 " />
			<path d="M19.109204206809874,15.396464713513598 L19.14747046318514,15.379293825338875 L19.184069842986762,15.35833246659197 L19.218850614687288,15.333667537624674 L19.251668586236345,15.305401292829464 L19.282387702843447,15.273650916719339 L19.310880611025826,15.238548038111244 L19.337029186582924,15.200238184427175 L19.360725024308664,15.158880178375258 L19.38186988741127,15.114645479512035 L19.40037611477754,15.067717473415655 L19.416166984393026,15.018290711416872 L19.429177031411623,14.966570104039736 L19.4393523195558,14.912770071495748 L19.44665066472242,14.857113654753336 L19.451041809867068,14.799831590867894 L19.452507550441922,14.741161356405863 " />
			<path d="M-9.404520189781083,4.391140927375011 L18.745400769255376,15.385563588934684 " />
			<path d="M-9.404520189781081,4.391140927375007 L-9.43921627503505,4.376480918267805 L-9.473828774380626,4.359638481519277 L-9.542469879422553,4.3195737846304905 L-9.60978245354226,4.271332681641276 L-9.67511823985418,4.21537976074469 L-9.737848019019955,4.1522538791559445 L-9.797367668974632,4.0825629736228555 L-9.8531039829524,4.006978205662632 L-9.904520189781081,3.9262274979095673 L-9.95112112328196,3.8410885238221506 L-9.992457990990761,3.752381218262542 L-10.028132696274417,3.6609598810756254 L-10.05780167221927,3.5677049497144973 L-10.081179190368257,3.473514520146497 L-10.098040112442154,3.379295697698091 L-10.108222058544273,3.285955861134704 L-10.11162697096763,3.194393924107191 " />
			<path d="M-10.11162697096763,-1.5253391906252727 L-10.11162697096763,3.194393924107186 " />
			<path d="M-9.404520189781081,-1.7997233779912214 L-8.697413408594535,-1.5235509926217243 " />
			<path d="M-10.040916292848975,-1.551168231158675 L-9.404520189781081,-1.7997233779912225 " />
			<path d="M-8.697413408594535,-1.5235509926217248 L-9.333809511662427,-1.2749958457891775 " />
			<path d="M-9.404520189781081,-1.799723377991222 L-9.404520189781081,2.918221538737689 " />
			<path d="M-8.697413408594535,-6.26451027479809 L-9.404520189781081,-6.540682660167587 " />
			<path d="M-9.333809511662427,-6.015955127965544 L-8.697413408594535,-6.264510274798091 " />
			<path d="M-8.697413408594533,-7.185084892696414 L-8.697413408594533,-6.264510274798091 " />
			<path d="M-8.697413408594533,-7.185084892696414 L-9.333809511662427,-6.936529745863867 " />
			<path d="M-9.333809511662427,-0.3544212278908545 L-9.41917640910536,-0.3229568507671532 L-9.50444592643689,-0.2952825520533544 L-9.589520794629497,-0.27142990050002114 L-9.674303966696698,-0.2514261054111704 L-9.75869872839693,-0.23529398560595238 L-9.842608808557847,-0.22305194338866619 L-9.925938488895214,-0.2147139435567995 L-10.008592713201098,-0.2102894974710403 L-10.0904771957768,-0.20978365220543838 L-10.171498528986875,-0.21319698479008142 L-10.251564289811514,-0.2205256015528625 L-10.33058314527573,-0.23176114256109148 L-10.408464956635134,-0.24689079115786638 L-10.485120882199404,-0.2658972885823596 L-10.560463478676178,-0.28875895365729765 L-10.634406800919754,-0.31544970752121637 " />
			<path d="M-10.634406800919763,-0.31544970752122037 L-10.721409489039413,-0.3525995817040801 L-10.80612034358251,-0.39518814404342884 L-10.88839945161744,-0.4431450530152383 L-10.968110916613849,-0.49639110045000834 L-11.045123082896549,-0.5548383423571654 L-11.119308753094995,-0.6183902441780145 L-11.190545398229196,-0.6869418402273295 L-11.258715360085073,-0.7603799070602322 L-11.323706045544983,-0.8385831504780263 L-11.385410112552472,-0.9214224058641207 L-11.443725647404113,-1.008760851519145 L-11.498556333075555,-1.1004542346429127 L-11.54981160830383,-1.196351109589981 L-11.59740681716312,-1.296293088005294 L-11.64126334888698,-1.4001151004267776 L-11.681308767706028,-1.5076456689228022 L-11.717476932486697,-1.6187071903142058 L-11.749708105973442,-1.7331162295131117 L-11.777949053453941,-1.8506838224940272 L-11.80215313068438,-1.9712157883968355 L-11.822280360929534,-2.0945130502461753 L-11.838297500990478,-2.2203719637575206 L-11.850178096110806,-2.3485846536868555 L-11.857902523670706,-2.478939357168432 L-11.861458025596718,-2.6112207734735304 L-11.86083872943365,-2.7452104196125386 L-11.856045658043827,-2.8806869911930257 L-11.847086727917683,-3.017426727937785 L-11.833976736098462,-3.1552037832591644 L-11.816737335742644,-3.2937905972792394 L-11.795397000356438,-3.432958272679747 L-11.769990976767442,-3.572476952761024 L-11.740561226909108,-3.7121162010854936 L-11.70715635851419,-3.851645382078688 L-11.669831544831649,-3.990834041959169 L-11.628648433499588,-4.129452289368191 L-11.583675044724751,-4.267271175070451 L-11.534985658936746,-4.404063070098749 L-11.48266069410256,-4.539602041718047 L-11.426786572903982,-4.673664226587935 L-11.367455579997337,-4.806028200507172 L-11.304765709591248,-4.936475344129622 L-11.238820503594228,-5.064790204047535 L-11.169728880599376,-5.190760848645797 L-11.097604955988656,-5.31417921813942 L-11.022567853453904,-5.434841468216081 L-10.944741508245828,-5.55254830671618 L-10.864254462475984,-5.667105322794328 L-10.781239652809823,-5.778323308018587 L-10.695834190901461,-5.88601856887713 L-10.6081791369328,-5.990013230176173 L-10.518419266631081,-6.090135528828057 L-10.42670283214962,-6.186220097544261 L-10.333181317206694,-6.2781082379647675 L-10.238009186887039,-6.365648182772672 L-10.141343632519119,-6.448695346361118 L-10.043344312049609,-6.527112563638544 L-9.94417308634388,-6.600770316577804 L-9.843993751848036,-6.669546948135 L-9.742971770054018,-6.733328863184697 L-9.641273994214648,-6.792010716139643 L-9.539068393759969,-6.845495584945119 L-9.436523776870045,-6.893695131160532 L-9.33380951166245,-6.936529745863858 " />
			<path d="M-9.333809511662427,-0.35442122789085406 L-8.697413408594533,-0.6029763747234014 " />
			<path d="M-8.697413408594533,-1.5235509926217248 L-8.697413408594533,-0.6029763747234014 " />
			<path d="M18.84439571862149,1.2381728610732434 L18.84439571862149,-0.22554078138509226 " />
			<path d="M18.84439571862149,-0.22554078138508915 L-6.187184335382289,-10.002043223465282 " />
			<path d="M-6.187184335382288,-6.204672924634699 L-6.187184335382288,-10.002043223465284 " />
			<path d="M-6.187184335382288,-6.204672924634698 L-8.697413408594535,-7.185084892696414 " />
			<path d="M16.510943340705886,2.149541732792584 L16.510943340705886,13.398963563510097 " />
			<path d="M16.510943340705886,13.398963563510097 L18.674690091136718,14.244051062740755 " />
			<path d="M16.369521984468577,0.7410625674081495 L18.84439571862149,-0.22554078138509015 " />
			<path d="M16.510943340705886,13.3989635635101 L18.67469009113672,12.553876064279438 " />
			<path d="M18.84439571862149,13.951308334249095 L18.84439571862149,12.487594691790758 " />
			<path d="M16.369521984468577,14.917911683042336 L18.844395718621495,13.951308334249095 " />
			<path d="M16.369521984468573,0.7410625674081386 L16.271687076890395,1.2104326325264871 L16.180005987406915,1.6796854575130684 L16.094510201115316,2.1486598916782507 L16.015229078957475,2.617194879937381 L15.942189847636822,3.0851295181201825 L15.875417590268203,3.55230310822846 L15.814935237763788,4.018555213622955 L15.760763560958186,4.4837257141204665 L15.712921163475297,4.947654860982277 L15.671424475339485,5.410183331775032 L15.636287747333167,5.871152285085208 L15.607523046102823,6.330403415068391 L15.585140250015069,6.787779005814628 L15.569147045764218,7.24312198551119 L15.559548925732535,7.696275980384136 L15.556349186104043,8.147085368400152 L15.559548925732535,8.595395332710234 L15.569147045764215,9.041051914816855 L15.585140250015066,9.483902067446348 L15.607523046102823,9.923793707108358 L15.636287747333167,10.360575766324335 L15.671424475339485,10.794098245507083 L15.712921163475293,11.224212264473564 L15.760763560958186,11.650770113573323 L15.814935237763788,12.073625304414872 L15.8754175902682,12.49263262017272 L15.942189847636822,12.907648165457683 L16.01522907895747,13.318529415733416 L16.094510201115312,13.72513526626214 L16.180005987406908,14.127326080562813 L16.27168707689039,14.524963738365052 L16.369521984468523,14.917911683042137 " />
			<path d="M20.159614331628468,14.464988971036359 L20.159614331628468,13.553620099317012 " />
			<path d="M19.452507550441922,15.109391203565183 L19.5002380161131,15.125933490512736 L19.547750754647314,15.138201028035025 L19.594829032090992,15.146137856572789 L19.641258096326865,15.149707771514782 L19.68682615668652,15.148894488348617 L19.731325350054036,15.143701716944138 L19.774552689053664,15.134153144630497 L19.81631098799642,15.120292328144103 " />
			<path d="M19.81631098799642,15.120292328144101 L19.854577244371686,15.103121439969378 L19.89117662417331,15.082160081222472 L19.925957395873834,15.057495152255177 L19.95877536742289,15.029228907459967 L19.989494484029994,14.997478531349842 L20.017987392212373,14.962375652741747 L20.04413596776947,14.924065799057677 L20.06783180549521,14.88270779300576 L20.088976668597816,14.838473094142538 L20.107482895964086,14.791545088046158 L20.123273765579572,14.742118326047375 L20.13628381259817,14.690397718670239 L20.146459100742344,14.636597686126251 L20.153757445908965,14.580941269383839 L20.158148591053614,14.523659205498397 L20.159614331628468,14.464988971036366 " />
			<path d="M-8.697413408594535,4.1149685420055135 L19.452507550441922,15.109391203565188 " />
			<path d="M-8.697413408594533,4.11496854200551 L-8.732109493848505,4.100308532898309 L-8.766721993194079,4.083466096149781 L-8.835363098236005,4.043401399260993 L-8.902675672355713,3.995160296271779 L-8.968011458667632,3.939207375375193 L-9.030741237833407,3.8760814937864474 L-9.090260887788084,3.806390588253359 L-9.145997201765852,3.7308058202931353 L-9.197413408594533,3.6500551125400706 L-9.244014342095412,3.564916138452654 L-9.285351209804213,3.4762088328930454 L-9.32102591508787,3.384787495706129 L-9.350694891032722,3.2915325643450006 L-9.37407240918171,3.1973421347770006 L-9.390933331255606,3.103123312328594 L-9.401115277357725,3.0097834757652073 L-9.404520189781081,2.9182215387376944 " />
			<path d="M-8.697413408594535,-0.6029763747234012 L-6.187184335382288,0.37743559333831467 " />
			<path d="M-6.187184335382288,4.174805892168902 L-6.187184335382288,0.3774355933383143 " />
			<path d="M-6.18718433538229,4.1748058921689015 L18.84439571862149,13.951308334249093 " />
			<path d="M-6.823580438450181,-5.956117777802151 L-9.333809511662427,-6.936529745863867 " />
			<path d="M-6.823580438450181,0.6259907401708618 L-6.908947335893114,0.6574551172945631 L-6.994216853224645,0.6851294160083614 L-7.079291721417251,0.7089820675616947 L-7.164074893484452,0.7289858626505459 L-7.2484696551846834,0.7451179824557634 L-7.332379735345601,0.7573600246730501 L-7.4157094156829695,0.7656980245049168 L-7.498363639988852,0.770122470590676 L-7.580248122564553,0.7706283158562779 L-7.66126945577463,0.7672149832716344 L-7.741335216599268,0.7598863665088538 L-7.820354072063484,0.7486508255006248 L-7.898235883422888,0.7335211769038499 L-7.974891808987157,0.7145146794793571 L-8.05023440546393,0.6916530144044186 L-8.124177727707506,0.6649622605405003 " />
			<path d="M-8.124177727707517,0.6649622605404963 L-8.211180415827167,0.6278123863576361 L-8.295891270370264,0.5852238240182874 L-8.378170378405194,0.5372669150464775 L-8.457881843401605,0.48402086761170615 L-8.534894009684306,0.4255736257045486 L-8.609079679882752,0.36202172388369736 L-8.680316325016955,0.2934701278343814 L-8.748486286872833,0.22003206100147965 L-8.81347697233274,0.1418288175836837 L-8.875181039340232,0.05898956219758933 L-8.933496574191873,-0.028348883457435914 L-8.988327259863315,-0.12004226658120576 L-9.03958253509159,-0.21593914152827542 L-9.08717774395088,-0.31588111994359025 L-9.13103427567474,-0.4197031323650755 L-9.171079694493788,-0.527233700861101 L-9.207247859274457,-0.6382952222525051 L-9.2394790327612,-0.7527042614514121 L-9.2677199802417,-0.8702718544323294 L-9.291924057472137,-0.9908038203351395 L-9.312051287717292,-1.1141010821844826 L-9.328068427778236,-1.2399599956958292 L-9.339949022898562,-1.3681726856251646 L-9.347673450458462,-1.4985273891067417 L-9.351228952384472,-1.6308088054118435 L-9.350609656221405,-1.7647984515508521 L-9.345816584831582,-1.9002750231313397 L-9.336857654705433,-2.037014759876102 L-9.323747662886213,-2.1747918151974845 L-9.306508262530393,-2.3133786292175595 L-9.285167927144187,-2.4525463046180676 L-9.25976190355519,-2.592064984699345 L-9.230332153696853,-2.731704233023814 L-9.196927285301935,-2.8712334140170084 L-9.159602471619394,-3.010422073897489 L-9.118419360287332,-3.149040321306515 L-9.073445971512493,-3.286859207008777 L-9.024756585724486,-3.4236511020370752 L-8.972431620890298,-3.5591900736563726 L-8.916557499691717,-3.693252258526263 L-8.857226506785068,-3.8256162324455025 L-8.794536636378979,-3.9560633760679513 L-8.72859143038196,-4.084378235985863 L-8.659499807387103,-4.210348880584128 L-8.587375882776382,-4.333767250077752 L-8.51233878024163,-4.454429500154411 L-8.43451243503355,-4.57213633865451 L-8.354025389263706,-4.6866933547326575 L-8.271010579597545,-4.797911339956915 L-8.185605117689182,-4.905606600815457 L-8.09795006372052,-5.009601262114498 L-8.008190193418798,-5.109723560766382 L-7.916473758937332,-5.205808129482586 L-7.822952243994407,-5.297696269903092 L-7.727780113674752,-5.385236214710993 L-7.631114559306829,-5.468283378299439 L-7.533115238837315,-5.546700595576865 L-7.433944013131587,-5.620358348516122 L-7.333764678635742,-5.689134980073317 L-7.232742696841721,-5.752916895123013 L-7.131044921002349,-5.811598748077957 L-7.02883932054767,-5.86508361688343 L-6.926294703657746,-5.913283163098841 L-6.82358043845015,-5.956117777802163 " />
			<path d="M-6.823580438450181,0.6259907401708618 L-9.333809511662427,-0.3544212278908536 " />
			<path d="M-6.823580438450181,-5.9561177778021515 L-6.1871843353822875,-6.204672924634699 " />
			<path d="M-8.662058069535208,-9.035439874672043 L-6.187184335382291,-10.002043223465282 " />
			<path d="M-6.1871843353822875,0.3774355933383143 L-6.823580438450181,0.6259907401708618 " />
			<path d="M-6.187184335382291,4.1748058921689015 L-8.66205806953521,5.141409240962141 " />
			<path d="M-8.66205806953521,-9.035439874672054 L-8.759892977113388,-8.566069809553706 L-8.851574066596868,-8.096816984567125 L-8.937069852888467,-7.627842550401943 L-9.016350975046308,-7.159307562142812 L-9.08939020636696,-6.691372923960011 L-9.15616246373558,-6.224199333851733 L-9.216644816239995,-5.757947228457239 L-9.270816493045597,-5.292776727959727 L-9.318658890528486,-4.828847581097917 L-9.360155578664298,-4.366319110305161 L-9.395292306670616,-3.9053501569949853 L-9.42405700790096,-3.446099027011803 L-9.446439803988714,-2.9887234362655652 L-9.462433008239564,-2.5333804565690032 L-9.472031128271247,-2.080226461696058 L-9.47523086789974,-1.6294170736800409 L-9.472031128271247,-1.1811071093699592 L-9.462433008239568,-0.7354505272633389 L-9.446439803988717,-0.2926003746338459 L-9.42405700790096,0.14729126502816392 L-9.395292306670616,0.5840733242441409 L-9.360155578664298,1.0175958034268895 L-9.31865889052849,1.4477098223933709 L-9.270816493045597,1.8742676714931292 L-9.216644816239995,2.297122862334678 L-9.156162463735583,2.716130178092527 L-9.08939020636696,3.1311457233774895 L-9.016350975046311,3.542026973653222 L-8.93706985288847,3.9486328241819457 L-8.851574066596875,4.35082363848262 L-8.759892977113392,4.748461296284859 L-8.66205806953526,5.141409240961943 " />
			<path d="M-8.662058069535208,-9.035439874672043 L16.369521984468577,0.7410625674081484 " />
			<path d="M-8.662058069535208,5.141409240962141 L16.369521984468577,14.917911683042334 " />
			<path d="M-11.826238281975668,-1.854504697811355 L-10.270603363365263,-1.2469254499984614 " />
			<path d="M-9.061216846149033,-11.91393093400424 L-9.768323627335581,-11.637758548634743 " />
			<path d="M19.81631098799642,15.120292328144101 L19.109204206809874,15.396464713513598 " />
			<path d="M-10.634406800919763,-0.3154497075212195 L-8.124177727707517,0.6649622605404959 " />

       </g>

       <!-- solid lines -->
       <g  stroke="rgb(0,0,0)" fill="none">
			<path d="M18.745400769255376,-1.737124303974137 L-9.404520189781083,-12.731546965533811 " />
			<path d="M-9.404520189781081,-12.731546965533811 L-9.457053665130578,-12.750909659148396 L-9.509527214257675,-12.767939996818427 L-9.56188097929928,-12.782618551620478 L-9.614055239032941,-12.794928579367463 L-9.665990477002312,-12.804856037709134 L-9.717627449409031,-12.812389602150542 L-9.768907252693566,-12.817520678970153 L-9.819771390727956,-12.820243415022928 L-9.870161841543773,-12.820554704417145 L-9.920021123519204,-12.818454192057363 L-9.969292360949751,-12.813944274049499 L-10.017919348927729,-12.807030094967512 L-10.065846617456591,-12.79771954198488 L-10.113019494726911,-12.7860232358775 L-10.15938416948185,-12.771954518908307 L-10.204887752400968,-12.755529439607438 " />
			<path d="M20.30103568786578,2.359432745673402 L20.30103568786578,0.8957191032150673 " />
			<path d="M18.745400769255372,-1.7371243039741409 L18.821732156814107,-1.7048722839382962 L18.897879655374375,-1.667818923091535 L18.973659818942405,-1.626053486225627 L19.04889008646661,-1.5796765899362033 L19.123389221643126,-1.5287999602285611 L19.196977749529967,-1.4735461633599316 L19.26947838891785,-1.4140483105666335 L19.34071647941619,-1.3504497373874425 L19.410520402225252,-1.2829036583557236 L19.478721993580894,-1.2115727978922022 L19.545156949875782,-1.1366289982875808 L19.609665223481183,-1.058252805719408 L19.672091408315733,-0.9766330353005246 L19.732285114232273,-0.8919663162069169 L19.7901013293209,-0.8044566179808099 L19.845400769255374,-0.7143147591501737 L19.898050212841223,-0.6217578993484265 L19.947922822957306,-0.5270090161578562 L19.99489845211753,-0.43029636793708936 L20.038863931916666,-0.33185294392671705 L20.07971334566296,-0.23191590295780595 L20.11734828354071,-0.13072600211550106 L20.151678079688136,-0.028527016734120003 L20.182620030619386,0.07443484687897928 L20.21009959446447,0.1779115445759592 L20.23405057054716,0.2816537919285791 L20.254415258868214,0.38541166477621885 L20.271144599109736,0.48893520131507423 L20.28419828882576,0.5919750042780303 L20.293544880534395,0.6942828417545267 L20.299161857477547,0.7956122452029761 L20.301035687865777,0.8957191032150457 " />
			<path d="M18.67469009113672,2.994629232023245 L20.301035687865777,2.359432745673402 " />
			<path d="M20.30103568786578,15.072568218849252 L20.30103568786578,13.608854576390915 " />
			<path d="M20.30103568786578,13.608854576390915 L18.674690091136725,14.244051062740757 " />
			<path d="M18.67469009113672,14.244051062740759 L18.67469009113672,2.9946292320232457 " />
			<path d="M19.545768331875273,16.514235604486288 L19.58829813133241,16.49640061356713 L19.62995409590086,16.476459650501894 L19.67069304068433,16.45443338816255 L19.710472731464424,16.430344661258705 L19.749251928485002,16.404218442664806 L19.786990429205584,16.376081817530654 L19.823649109979502,16.345963955202123 L19.85918996661351,16.313896078981195 L19.893576153766887,16.279911433756638 L19.92677202314913,16.244045251538918 L19.958743160476686,16.206334714935018 L19.989456421150365,16.16681891860111 L20.01887996461646,16.125538828712962 L20.046983287375983,16.082537240496155 L20.073737254607764,16.037858733860116 L20.099114130372605,15.991549627181938 L20.145632829198345,15.894233289682846 L20.186346529404133,15.790991676270812 L20.22108644255821,15.682252799873492 L20.24970854599912,15.568467463643792 L20.27209417991631,15.450107392047018 L20.288150539282867,15.32766327521371 L20.2978110586011,15.201642734665738 L20.30103568786578,15.072568218849268 " />
			<path d="M20.30103568786578,13.608854576390915 L19.452507550441926,13.277447713947517 " />
			<path d="M18.67469009113672,12.553876064279438 L18.84439571862149,12.487594691790758 " />
			<path d="M20.15961433162847,13.00127532857802 L18.84439571862149,12.487594691790756 " />
			<path d="M19.452507550441922,13.277447713947518 L20.159614331628468,13.001275328578021 " />
			<path d="M20.159614331628468,13.553620099317012 L20.159614331628468,13.001275328578021 " />
			<path d="M-11.17228714274745,-12.04111600211007 L-9.404520189781081,-12.731546965533811 " />
			<path d="M-11.17228714274745,-12.04111600211007 L16.977633816289007,-1.0466933405503935 " />
			<path d="M18.745400769255376,-1.7371243039741358 L16.977633816289007,-1.0466933405503933 " />
			<path d="M-11.972654705367349,-12.065098476183689 L-11.927151122448219,-12.081523555484564 L-11.880786447693282,-12.095592272453757 L-11.833613570422962,-12.107288578561137 L-11.7856863018941,-12.116599131543769 L-11.73705931391612,-12.123513310625754 L-11.687788076485573,-12.12802322863362 L-11.637928794510142,-12.130123740993401 L-11.587538343694325,-12.129812451599184 L-11.536674205659935,-12.12708971554641 L-11.485394402375402,-12.121958638726799 L-11.433757429968683,-12.114425074285393 L-11.38182219199931,-12.10449761594372 L-11.329647932265647,-12.092187588196733 L-11.277294167224044,-12.077509033394684 L-11.224820618096947,-12.060478695724653 L-11.172287142747457,-12.041116002110071 " />
			<path d="M-12.660037477159474,-10.02653574811566 L15.489883481876983,0.9678869134440165 " />
			<path d="M-12.660037477159472,-10.02653574811566 L-12.640762707515368,-10.110703951777744 L-12.619159612551599,-10.194721763719045 L-12.595262444818356,-10.278455970419685 L-12.569109094207743,-10.361773808026953 L-12.540741027877866,-10.44454317285759 L-12.51020322450504,-10.526632830853336 L-12.477544102968341,-10.607912625657635 L-12.442815445579592,-10.688253684983636 L-12.40607231598047,-10.767528624946223 L-12.367372971836971,-10.845611752034142 L-12.326778772469591,-10.922379262401957 L-12.28435408156574,-10.997709438165902 L-12.240166165128597,-11.07148284039231 L-12.194285084824244,-11.143582498472721 L-12.146783586896149,-11.213894095585339 L-12.09773698682317,-11.28230614994882 L-12.047223049903916,-11.348710191580977 L-11.995321867956829,-11.41300093428219 L-11.942115732331489,-11.47507644257076 L-11.887689003432463,-11.53483829330561 L-11.832127976962587,-11.592191731740014 L-11.775520747097769,-11.64704582175894 L-11.717957066810227,-11.699313590061816 L-11.659528205561655,-11.74891216406209 L-11.600326804591926,-11.795762903284949 L-11.540446730032794,-11.83979152405486 L-11.479982924079474,-11.880928217275246 L-11.419031254456087,-11.919107759113517 L-11.357688362413649,-11.954269614416019 L-11.296051509501583,-11.986358032688871 L-11.234218423355745,-12.015322136492552 L-11.172287142747464,-12.041116002110064 " />
			<path d="M15.489883481876985,0.9678869134440165 L15.50915825152109,0.8837187097819315 L15.530761346484859,0.7997008978406297 L15.5546585142181,0.7159666911399907 L15.580811864828714,0.6326488535327224 L15.609179931158591,0.5498794887020849 L15.639717734531418,0.46778983070633984 L15.672376856068116,0.3865100359020397 L15.707105513456865,0.3061689765760398 L15.743848643055987,0.22689403661345198 L15.782547987199486,0.14881090952553422 L15.823142186566866,0.07204339915771785 L15.865566877470718,-0.0032867766062270043 L15.90975479390786,-0.0770601788326355 L15.955635874212213,-0.14915983691304535 L16.00313737214031,-0.21947143402566383 L16.052183972213285,-0.2878834883891441 L16.10269790913254,-0.35428753002130287 L16.15459909107963,-0.41857827272251513 L16.20780522670497,-0.4806537810110856 L16.262231955603994,-0.5404156317459354 L16.31779298207387,-0.5977690701803395 L16.37440021193869,-0.652623160199266 L16.431963892226232,-0.7048909285021414 L16.490392753474804,-0.7544895025024154 L16.54959415444453,-0.8013402417252737 L16.609474229003663,-0.8453688624951854 L16.669938034956985,-0.8865055557155705 L16.73088970458037,-0.9246850975538428 L16.792232596622807,-0.9598469528563442 L16.853869449534876,-0.9919353711291958 L16.915702535680712,-1.0208994749328772 L16.977633816288993,-1.0466933405503893 " />
			<path d="M16.977633816289003,-1.0466933405503982 L17.05396520384774,-1.0144413205145535 L17.130112702408006,-0.9773879596677923 L17.205892865976036,-0.9356225228018844 L17.28112313350024,-0.8892456265124606 L17.355622268676758,-0.8383689968048185 L17.4292107965636,-0.7831151999361889 L17.50171143595148,-0.7236173471428908 L17.572949526449822,-0.6600187739636998 L17.642753449258883,-0.592472694931981 L17.710955040614525,-0.5211418344684595 L17.777389996909413,-0.44619803486383813 L17.841898270514815,-0.3678218422956654 L17.904324455349364,-0.2862020718767819 L17.964518161265904,-0.20153535278317425 L18.022334376354532,-0.11402565455706726 L18.077633816289005,-0.023883795726431067 L18.130283259874854,0.06867306407531615 L18.180155869990937,0.16342194726588644 L18.22713149915116,0.2601345954866533 L18.271096978950297,0.3585780194970256 L18.31194639269659,0.4585150604659367 L18.349581330574342,0.5597049613082417 L18.383911126721767,0.6619039466896226 L18.414853077653017,0.7648658103027219 L18.4423326414981,0.8683425079997018 L18.466283617580793,0.9720847553523217 L18.486648305901845,1.0758426281999616 L18.503377646143367,1.179366164738817 L18.51643133585939,1.282405967701773 L18.525777927568026,1.3847138051782695 L18.531394904511178,1.4860432086267188 L18.53326873489941,1.5861500666387882 " />
			<path d="M20.30103568786578,0.8957191032150675 L18.533268734899412,1.58615006663881 " />
			<path d="M18.533268734899412,1.5861500666387993 L18.435433827321233,2.055520131757148 L18.343752737837754,2.524772956743729 L18.258256951546155,2.9937473909089114 L18.178975829388314,3.462282379168042 L18.10593659806766,3.9302170173508433 L18.039164340699042,4.397390607459121 L17.978681988194626,4.863642712853616 L17.924510311389025,5.328813213351127 L17.876667913906136,5.792742360212937 L17.835171225770324,6.255270831005693 L17.800034497764006,6.716239784315869 L17.771269796533662,7.1754909142990515 L17.748887000445908,7.632866505045289 L17.732893796195057,8.088209484741851 L17.723295676163374,8.541363479614796 L17.720095936534882,8.992172867630813 L17.723295676163374,9.440482831940894 L17.732893796195054,9.886139414047516 L17.748887000445905,10.32898956667701 L17.771269796533662,10.768881206339017 L17.800034497764006,11.205663265554996 L17.835171225770324,11.639185744737745 L17.876667913906132,12.069299763704226 L17.924510311389025,12.495857612803984 L17.978681988194626,12.918712803645533 L18.03916434069904,13.337720119403382 L18.10593659806766,13.752735664688345 L18.17897582938831,14.163616914964077 L18.25825695154615,14.570222765492801 L18.343752737837747,14.972413579793475 L18.43543382732123,15.370051237595714 L18.533268734899362,15.762999182272797 " />
			<path d="M18.533268734899412,15.762999182272997 L20.30103568786578,15.072568218849254 " />
			<path d="M-13.323151151285876,-10.478219679822397 L-13.324623066173817,-10.456705438822613 L-13.32006345658733,-10.43395578692553 L-13.309485099991363,-10.410034475834918 L-13.29291764027933,-10.385008540613349 L-13.27040750470157,-10.358948111828795 L-13.242017773761539,-10.331926219026657 L-13.20782800444434,-10.304018586077918 L-13.167934007272931,-10.275303418976968 L-13.122447577816818,-10.245861186683728 L-13.071496183405579,-10.215774395624226 L-12.953784541698115,-10.15400595792516 L-12.816117618430503,-10.090689999433213 L-12.66003747715948,-10.026535748115661 " />
			<path d="M-12.660037477159472,-10.02653574811567 L-12.766039753388439,-9.517982139512087 L-12.86537448383354,-9.009555558378967 L-12.958007554986102,-8.501430608447631 L-13.043907154819651,-7.9937817898632195 L-13.123043783714772,-7.48678343925798 L-13.195390264589848,-6.980609669880611 L-13.260921752234248,-6.475434311802329 L-13.319615741840616,-5.971430852220182 L-13.371452076733503,-5.468772375878136 L-13.41641295529154,-4.9676315056263345 L-13.454482937060893,-4.468180343139018 L-13.485648948057795,-3.970590409811396 L-13.509900285258423,-3.4750325878558215 L-13.527228620274533,-2.9816770616174653 L-13.537628002213586,-2.4906932591296362 L-13.54109485972238,-2.002249793928864 L-13.537628002213582,-1.5165144071496677 L-13.527228620274537,-1.0336539099189483 L-13.509900285258427,-0.5538341260697361 L-13.485648948057799,-0.07721983519404141 L-13.454482937060893,0.3960252839457663 L-13.41641295529154,0.8657387096274132 L-13.371452076733503,1.3317591329819383 L-13.31961574184062,1.7939265133903373 L-13.260921752234248,2.2520821334446417 L-13.195390264589852,2.706068653454661 L-13.123043783714769,3.155730165481499 L-13.043907154819655,3.600912246879446 L-12.958007554986105,4.041462013327749 L-12.86537448383354,4.47722817133411 L-12.766039753388439,4.908061070191904 L-12.660037477159529,5.333812753372863 " />
			<path d="M-12.660037477159474,5.333812753373073 L15.489883481876983,16.32823541493275 " />
			<path d="M15.489883481876983,0.9678869134440067 L15.383881205648017,1.4764405220475885 L15.284546475202916,1.984867103180708 L15.191913404050354,2.4929920531120437 L15.106013804216804,3.000640871696456 L15.026877175321683,3.5076392223016954 L14.954530694446607,4.013812991679065 L14.888999206802207,4.518988349757347 L14.83030521719584,5.022991809339493 L14.778468882302953,5.5256502856815395 L14.733508003744916,6.026791155933341 L14.695438021975562,6.526242318420658 L14.66427201097866,7.02383225174828 L14.640020673778032,7.519390073703854 L14.622692338761922,8.01274559994221 L14.61229295682287,8.50372940243004 L14.608826099314076,8.992172867630812 L14.612292956822873,9.477908254410007 L14.622692338761919,9.960768751640728 L14.640020673778029,10.44058853548994 L14.664272010978657,10.917202826365635 L14.695438021975562,11.390447945505443 L14.733508003744916,11.86016137118709 L14.778468882302953,12.326181794541615 L14.830305217195836,12.788349174950014 L14.888999206802207,13.246504795004316 L14.954530694446603,13.700491315014336 L15.026877175321687,14.150152827041175 L15.1060138042168,14.59533490843912 L15.19191340405035,15.035884674887424 L15.284546475202916,15.471650832893786 L15.383881205648017,15.90248373175158 L15.489883481876927,16.32823541493254 " />
			<path d="M15.489883481876985,0.9678869134440169 L15.64952629249971,1.0274915397628444 L15.82195950459395,1.0866250327962632 L16.005522492065655,1.1447179046807057 L16.198447442999736,1.2012106893031302 L16.39887638465519,1.2555593302655257 L16.604879076758273,1.3072404204454353 L16.814471600771505,1.3557562426926686 L17.025635466113712,1.4006395631175388 L17.236337049327737,1.4414581308086356 L17.444547178986024,1.4778188406453943 L17.64826067772073,1.5093715191153012 L17.845515673177918,1.535812296676243 L18.034412491920783,1.556886534186308 L18.213131954323323,1.572391275217925 L18.379952894264616,1.5821772006392052 L18.533268734899398,1.5861500666388106 " />
			<path d="M-13.302349861830645,4.711299746792662 L-13.287668515260368,4.760575341712174 L-13.269354563062562,4.808821320556208 L-13.247439454585642,4.855954833671016 L-13.221960823207409,4.901894941767253 L-13.192962421709712,4.946562754911704 L-13.160494047144681,4.989881567999793 L-13.124611455321496,5.031776992476225 L-13.085376265060615,5.072177084077568 L-13.042855852379805,5.111012466377418 L-12.997123234793731,5.148216449921988 L-12.94825694592577,5.183725146751523 L-12.896340900647367,5.2174775801109075 L-12.841464250976543,5.249415789161041 L-12.783721232982973,5.2794849285111916 L-12.723211004962575,5.3076333624013765 L-12.66003747715948,5.333812753373071 " />
			<path d="M15.489883481876985,16.328235414932752 L15.56800692986929,16.35663520798305 L15.649526292499711,16.382141168225402 L15.73424518248342,16.404691849567524 L15.82195950459395,16.42423292544285 L15.912457947346466,16.440717319688012 L16.005522492065655,16.454105319953406 L16.10092893811179,16.464364673373737 L16.198447442999736,16.47147066426801 L16.2978430761096,16.475406173681748 L16.398876384655193,16.476161720628056 L16.501303970546754,16.47373548492817 L16.604879076758273,16.468133311596404 L16.709352181786784,16.459368696759 L16.81447160077151,16.4474627551408 L16.919984091824734,16.432444169197993 L17.025635466113712,16.41434912001959 L17.13117120022382,16.393221200164 L17.236337049327737,16.369111308640747 L17.34087965968354,16.34207752829028 L17.444547178986024,16.312184985857346 L17.547089863100993,16.279505695094947 L17.64826067772073,16.244118383276895 L17.747815893491307,16.20610830153692 L17.845515673177918,16.165567019491224 L17.941124649453812,16.122592204639254 L18.034412491920783,16.077287387074136 L18.125154461995276,16.02976171006962 L18.213131954323327,15.980129667144366 L18.298133023419997,15.928510826237032 L18.379952894264616,15.875029541656644 L18.458394455621747,15.819814654502164 L18.533268734899398,15.762999182273008 " />
			<path d="M17.778001378908904,17.20466656791003 L17.820531178366043,17.186831576990873 L17.86218714293449,17.166890613925638 L17.90292608771796,17.144864351586293 L17.942705778498055,17.120775624682448 L17.981484975518633,17.09464940608855 L18.019223476239215,17.066512780954397 L18.055882157013134,17.036394918625867 L18.09142301364714,17.004327042404938 L18.125809200800518,16.97034239718038 L18.15900507018276,16.93447621496266 L18.190976207510317,16.89676567835876 L18.221689468183996,16.857249882024853 L18.25111301165009,16.815969792136706 L18.279216334409615,16.7729682039199 L18.305970301641395,16.72828969728386 L18.331347177406236,16.68198059060568 L18.377865876231976,16.58466425310659 L18.418579576437764,16.481422639694557 L18.45331948959184,16.372683763297236 L18.48194159303275,16.258898427067535 L18.50432722694994,16.140538355470763 L18.5203835863165,16.018094238637456 L18.53004410563473,15.892073698089481 L18.533268734899412,15.762999182273012 " />
			<path d="M-11.97265470536735,6.210243906350359 L-12.03297521050146,6.184200790270486 L-12.091485357057529,6.15390209777446 L-12.14806207565689,6.119411558684873 L-12.202586363664713,6.080801719892569 L-12.254943535498374,6.038153792762586 L-12.305023463855424,5.991557482315369 L-12.35272081135373,5.9411107985425575 L-12.397935252096577,5.886919850254211 L-12.440571682696662,5.829098621891104 L-12.480540422315174,5.767768733771543 L-12.517757401295132,5.703059186276974 L-12.552144337992269,5.6351060885144895 L-12.583628903431485,5.564052372026944 L-12.612144873442542,5.49004749015285 L-12.637632267955015,5.413247103668438 L-12.660037477159472,5.333812753373081 " />
			<path d="M16.17726625366911,17.20466656791004 L16.116945748535,17.178623451830163 L16.058435601978932,17.148324759334137 L16.00185888337957,17.11383422024455 L15.947334595371746,17.075224381452244 L15.894977423538085,17.032576454322264 L15.844897495181035,16.985980143875047 L15.797200147682728,16.935533460102235 L15.751985706939882,16.881342511813887 L15.709349276339797,16.82352128345078 L15.669380536721285,16.76219139533122 L15.632163557741327,16.697481847836652 L15.59777662104419,16.62952875007417 L15.566292055604976,16.55847503358662 L15.537776085593917,16.48447015171253 L15.512288691081444,16.407669765228118 L15.489883481876987,16.32823541493276 " />
			<path d="M-11.972654705367349,-12.065098476183689 L-10.20488775240098,-12.75552943960743 " />
			<path d="M-13.323151148099036,-10.478219694647072 L-13.292707879456135,-10.602210009160897 L-13.255123353281332,-10.724225557723845 L-13.210524148595471,-10.843855410353905 L-13.159060468799636,-10.960696671733492 L-13.100905635812724,-11.074355838100159 L-13.036255506349347,-11.184450122507979 L-12.965327812303924,-11.290608743996298 L-12.88836142746247,-11.392474176324141 L-12.80561556301168,-11.489703352064721 L-12.717368894554705,-11.581968818004835 L-12.623918623573722,-11.668959837957944 L-12.525579476500118,-11.750383439276831 L-12.42268264476329,-11.82596539954133 L-12.315574669387825,-11.895451170098113 L-12.204616273895537,-11.958606733342204 L-12.090181149443007,-12.015219390853007 L-11.972654696286073,-12.065098479730535 " />
			<path d="M-13.32315115106763,-10.478219680837645 L-13.427040281597392,-9.979759356149682 L-13.524393037244565,-9.481268911718697 L-13.615175920403281,-8.982911284651363 L-13.699357193037784,-8.484848531298143 L-13.776906876682423,-7.9872418272532935 L-13.847796752441658,-7.490251467354863 L-13.91200036099006,-6.994036865684691 L-13.969493002572303,-6.498756555568412 L-14.020251737003179,-6.0045681895754495 L-14.064255383667579,-5.511628539519021 L-14.101484521520508,-5.020093496456136 L-14.131921489087082,-4.530118070687594 L-14.155550384462522,-4.04185639175799 L-14.17235706531216,-3.5554617084557076 L-14.182329148871437,-3.071086388812927 L-14.1854560119459,-2.5888819201056155 L-14.181728790911212,-2.108998908853536 L-14.171140381713135,-1.6315870808202408 L-14.153685439867548,-1.1567952810130784 L-14.129360380460438,-0.6847714736831847 L-14.098163378147895,-0.21566274232549176 L-14.060094367156125,0.2503847103212795 L-14.01515504128144,0.713225562274614 L-13.963348853890261,1.172715372308204 L-13.904680468183464,1.6287110924091368 L-13.839151271996643,2.081075597020078 L-13.766767054321749,2.529670646838216 L-13.687535991504475,2.974357987207466 L-13.601467489779234,3.415000351635135 L-13.508572185269157,3.851461461791926 L-13.408861943986103,4.2836060275119365 L-13.30234986183065,4.711299746792629 " />
			<path d="M17.778001378908908,17.20466656791003 L19.545768331875276,16.514235604486288 " />
			<path d="M-11.97265470536735,6.210243906350359 L16.177266253669107,17.204666567910035 " />
			<path d="M-11.972654708025141,6.210243905312316 L-12.092300605701379,6.159390434413828 L-12.208733828467118,6.101558600882804 L-12.321547793040054,6.036950352721195 L-12.430348554539894,5.9657913010817065 L-12.534756182138674,5.888329932436616 L-12.634406085774229,5.804836740866281 L-12.72895028929389,5.715603283497371 L-12.818058645582628,5.620941162389214 L-12.901419989432442,5.521180936423506 L-12.978743224127168,5.416670966997042 L-13.049758337948386,5.307776201548306 L-13.114217347052787,5.194876899165806 L-13.171895161428491,5.078367302728354 L-13.22259037090641,4.958654262214106 L-13.266125948481905,4.836155813985794 L-13.302349868490765,4.711299721013253 " />
			<path d="M17.77800143327513,17.2046665466764 L17.659363141172012,17.247128596677328 L17.538488372628574,17.28272860191604 L17.415773668562466,17.311349773265114 L17.2916216059709,17.33289821631062 L17.166439477239383,17.34730323938149 L17.040637953981182,17.354517585460094 L16.914629739790893,17.3545175872133 L16.788828216331936,17.347303244635363 L16.663646087199574,17.332898225047927 L16.53949402400838,17.311349785457185 L16.41677931914583,17.282728617522878 L16.29590454961176,17.247128615647735 L16.17726625632705,17.20466656894814 " />

       </g>
    </g>
    
</svg>
