 2.00000000e+00  2.82395556e-05 
 2.01000000e+00  2.97515848e-05 
 2.02000000e+00  3.13432541e-05 
 2.03000000e+00  3.30186157e-05 
 2.04000000e+00  3.47819126e-05 
 2.05000000e+00  3.66375863e-05 
 2.06000000e+00  3.85902841e-05 
 2.07000000e+00  4.06448667e-05 
 2.08000000e+00  4.28064159e-05 
 2.09000000e+00  4.50802424e-05 
 2.10000000e+00  4.74718933e-05 
 2.11000000e+00  4.99871602e-05 
 2.12000000e+00  5.26320864e-05 
 2.13000000e+00  5.54129750e-05 
 2.14000000e+00  5.83363957e-05 
 2.15000000e+00  6.14091929e-05 
 2.16000000e+00  6.46384921e-05 
 2.17000000e+00  6.80317069e-05 
 2.18000000e+00  7.15965455e-05 
 2.19000000e+00  7.53410165e-05 
 2.20000000e+00  7.92734348e-05 
 2.21000000e+00  8.34024261e-05 
 2.22000000e+00  8.77369317e-05 
 2.23000000e+00  9.22862120e-05 
 2.24000000e+00  9.70598493e-05 
 2.25000000e+00  1.02067750e-04 
 2.26000000e+00  1.07320145e-04 
 2.27000000e+00  1.12827589e-04 
 2.28000000e+00  1.18600964e-04 
 2.29000000e+00  1.24651469e-04 
 2.30000000e+00  1.30990622e-04 
 2.31000000e+00  1.37630254e-04 
 2.32000000e+00  1.44582498e-04 
 2.33000000e+00  1.51859787e-04 
 2.34000000e+00  1.59474838e-04 
 2.35000000e+00  1.67440646e-04 
 2.36000000e+00  1.75770461e-04 
 2.37000000e+00  1.84477785e-04 
 2.38000000e+00  1.93576343e-04 
 2.39000000e+00  2.03080068e-04 
 2.40000000e+00  2.13003083e-04 
 2.41000000e+00  2.23359670e-04 
 2.42000000e+00  2.34164252e-04 
 2.43000000e+00  2.45431359e-04 
 2.44000000e+00  2.57175604e-04 
 2.45000000e+00  2.69411651e-04 
 2.46000000e+00  2.82154179e-04 
 2.47000000e+00  2.95417853e-04 
 2.48000000e+00  3.09217286e-04 
 2.49000000e+00  3.23567002e-04 
 2.50000000e+00  3.38481400e-04 
 2.51000000e+00  3.53974714e-04 
 2.52000000e+00  3.70060977e-04 
 2.53000000e+00  3.86753979e-04 
 2.54000000e+00  4.04067229e-04 
 2.55000000e+00  4.22013919e-04 
 2.56000000e+00  4.40606880e-04 
 2.57000000e+00  4.59858551e-04 
 2.58000000e+00  4.79780940e-04 
 2.59000000e+00  5.00385586e-04 
 2.60000000e+00  5.21683531e-04 
 2.61000000e+00  5.43685289e-04 
 2.62000000e+00  5.66400810e-04 
 2.63000000e+00  5.89839462e-04 
 2.64000000e+00  6.14009999e-04 
 2.65000000e+00  6.38920547e-04 
 2.66000000e+00  6.64578578e-04 
 2.67000000e+00  6.90990901e-04 
 2.68000000e+00  7.18163643e-04 
 2.69000000e+00  7.46102246e-04 
 2.70000000e+00  7.74811456e-04 
 2.71000000e+00  8.04295320e-04 
 2.72000000e+00  8.34557188e-04 
 2.73000000e+00  8.65599713e-04 
 2.74000000e+00  8.97424859e-04 
 2.75000000e+00  9.30033907e-04 
 2.76000000e+00  9.63427466e-04 
 2.77000000e+00  9.97605489e-04 
 2.78000000e+00  1.03256729e-03 
 2.79000000e+00  1.06831154e-03 
 2.80000000e+00  1.10483633e-03 
 2.81000000e+00  1.14213915e-03 
 2.82000000e+00  1.18021693e-03 
 2.83000000e+00  1.21906607e-03 
 2.84000000e+00  1.25868245e-03 
 2.85000000e+00  1.29906145e-03 
 2.86000000e+00  1.34019801e-03 
 2.87000000e+00  1.38208661e-03 
 2.88000000e+00  1.42472136e-03 
 2.89000000e+00  1.46809594e-03 
 2.90000000e+00  1.51220371e-03 
 2.91000000e+00  1.55703769e-03 
 2.92000000e+00  1.60259060e-03 
 2.93000000e+00  1.64885488e-03 
 2.94000000e+00  1.69582272e-03 
 2.95000000e+00  1.74348608e-03 
 2.96000000e+00  1.79183674e-03 
 2.97000000e+00  1.84086627e-03 
 2.98000000e+00  1.89056610e-03 
 2.99000000e+00  1.94092753e-03 
 3.00000000e+00  1.99194173e-03 
 3.01000000e+00  2.04359977e-03 
 3.02000000e+00  2.09589267e-03 
 3.03000000e+00  2.14881136e-03 
 3.04000000e+00  2.20234675e-03 
 3.05000000e+00  2.25648970e-03 
 3.06000000e+00  2.31123109e-03 
 3.07000000e+00  2.36656176e-03 
 3.08000000e+00  2.42247258e-03 
 3.09000000e+00  2.47895447e-03 
 3.10000000e+00  2.53599834e-03 
 3.11000000e+00  2.59359518e-03 
 3.12000000e+00  2.65173603e-03 
 3.13000000e+00  2.71041198e-03 
 3.14000000e+00  2.76961420e-03 
 3.15000000e+00  2.82933395e-03 
 3.16000000e+00  2.88956256e-03 
 3.17000000e+00  2.95029145e-03 
 3.18000000e+00  3.01151214e-03 
 3.19000000e+00  3.07321627e-03 
 3.20000000e+00  3.13539554e-03 
 3.21000000e+00  3.19804181e-03 
 3.22000000e+00  3.26114701e-03 
 3.23000000e+00  3.32470321e-03 
 3.24000000e+00  3.38870258e-03 
 3.25000000e+00  3.45313742e-03 
 3.26000000e+00  3.51800014e-03 
 3.27000000e+00  3.58328328e-03 
 3.28000000e+00  3.64897949e-03 
 3.29000000e+00  3.71508155e-03 
 3.30000000e+00  3.78158235e-03 
 3.31000000e+00  3.84847493e-03 
 3.32000000e+00  3.91575243e-03 
 3.33000000e+00  3.98340811e-03 
 3.34000000e+00  4.05143537e-03 
 3.35000000e+00  4.11982770e-03 
 3.36000000e+00  4.18857874e-03 
 3.37000000e+00  4.25768225e-03 
 3.38000000e+00  4.32713207e-03 
 3.39000000e+00  4.39692220e-03 
 3.40000000e+00  4.46704672e-03 
 3.41000000e+00  4.53749986e-03 
 3.42000000e+00  4.60827593e-03 
 3.43000000e+00  4.67936937e-03 
 3.44000000e+00  4.75077473e-03 
 3.45000000e+00  4.82248664e-03 
 3.46000000e+00  4.89449988e-03 
 3.47000000e+00  4.96680930e-03 
 3.48000000e+00  5.03940987e-03 
 3.49000000e+00  5.11229665e-03 
 3.50000000e+00  5.18546480e-03 
 3.51000000e+00  5.25890959e-03 
 3.52000000e+00  5.33262638e-03 
 3.53000000e+00  5.40661062e-03 
 3.54000000e+00  5.48085784e-03 
 3.55000000e+00  5.55536370e-03 
 3.56000000e+00  5.63012390e-03 
 3.57000000e+00  5.70513425e-03 
 3.58000000e+00  5.78039066e-03 
 3.59000000e+00  5.85588909e-03 
 3.60000000e+00  5.93162562e-03 
 3.61000000e+00  6.00759638e-03 
 3.62000000e+00  6.08379758e-03 
 3.63000000e+00  6.16022553e-03 
 3.64000000e+00  6.23687659e-03 
 3.65000000e+00  6.31374721e-03 
 3.66000000e+00  6.39083390e-03 
 3.67000000e+00  6.46813325e-03 
 3.68000000e+00  6.54564192e-03 
 3.69000000e+00  6.62335663e-03 
 3.70000000e+00  6.70127417e-03 
 3.71000000e+00  6.77939139e-03 
 3.72000000e+00  6.85770521e-03 
 3.73000000e+00  6.93621263e-03 
 3.74000000e+00  7.01491067e-03 
 3.75000000e+00  7.09379645e-03 
 3.76000000e+00  7.17286713e-03 
 3.77000000e+00  7.25211993e-03 
 3.78000000e+00  7.33155215e-03 
 3.79000000e+00  7.41116111e-03 
 3.80000000e+00  7.49094423e-03 
 3.81000000e+00  7.57089898e-03 
 3.82000000e+00  7.65102286e-03 
 3.83000000e+00  7.73131348e-03 
 3.84000000e+00  7.81176849e-03 
 3.85000000e+00  7.89238561e-03 
 3.86000000e+00  7.97316266e-03 
 3.87000000e+00  8.05409751e-03 
 3.88000000e+00  8.13518816e-03 
 3.89000000e+00  8.21643270e-03 
 3.90000000e+00  8.29782935e-03 
 3.91000000e+00  8.37937647e-03 
 3.92000000e+00  8.46107262e-03 
 3.93000000e+00  8.54291656e-03 
 3.94000000e+00  8.62490732e-03 
 3.95000000e+00  8.70704427e-03 
 3.96000000e+00  8.78932719e-03 
 3.97000000e+00  8.87175638e-03 
 3.98000000e+00  8.95433278e-03 
 3.99000000e+00  9.03705820e-03 
 4.00000000e+00  9.11993546e-03 
 4.01000000e+00  9.20296876e-03 
 4.02000000e+00  9.28616400e-03 
 4.03000000e+00  9.36952927e-03 
 4.04000000e+00  9.45307549e-03 
 4.05000000e+00  9.53681715e-03 
 4.06000000e+00  9.62077333e-03 
 4.07000000e+00  9.70496901e-03 
 4.08000000e+00  9.78943674e-03 
 4.09000000e+00  9.87421872e-03 
 4.10000000e+00  9.95936958e-03 
 4.11000000e+00  1.00449599e-02 
 4.12000000e+00  1.01310806e-02 
 4.13000000e+00  1.02178490e-02 
 4.14000000e+00  1.03054158e-02 
 4.15000000e+00  1.03939750e-02 
 4.16000000e+00  1.04837758e-02 
 4.17000000e+00  1.05751386e-02 
 4.18000000e+00  1.06684746e-02 
 4.19000000e+00  1.07643122e-02 
 4.20000000e+00  1.08633293e-02 
 4.21000000e+00  1.09663964e-02 
 4.22000000e+00  1.10746303e-02 
 4.23000000e+00  1.11894643e-02 
 4.24000000e+00  1.13127367e-02 
 4.25000000e+00  1.14468058e-02 
 4.26000000e+00  1.15946954e-02 
 4.27000000e+00  1.17602820e-02 
 4.28000000e+00  1.19485335e-02 
 4.29000000e+00  1.21658138e-02 
 4.30000000e+00  1.24202706e-02 
 4.31000000e+00  1.27223286e-02 
 4.32000000e+00  1.30853141e-02 
 4.33000000e+00  1.35262437e-02 
 4.34000000e+00  1.40668163e-02 
 4.35000000e+00  1.47346510e-02 
 4.36000000e+00  1.55648225e-02 
 4.37000000e+00  1.66017428e-02 
 4.38000000e+00  1.79014385e-02 
 4.39000000e+00  1.95342541e-02 
 4.40000000e+00  2.15879825e-02 
 4.41000000e+00  2.41713650e-02 
 4.42000000e+00  2.74178105e-02 
 4.43000000e+00  3.14890446e-02 
 4.44000000e+00  3.65782200e-02 
 4.45000000e+00  4.29118064e-02 
 4.46000000e+00  5.07493850e-02 
 4.47000000e+00  6.03803736e-02 
 4.48000000e+00  7.21168253e-02 
 4.49000000e+00  8.62818745e-02 
 4.50000000e+00  1.03194199e-01 
 4.51000000e+00  1.23149883e-01 
 4.52000000e+00  1.46404016e-01 
 4.53000000e+00  1.73154836e-01 
 4.54000000e+00  2.03532943e-01 
 4.55000000e+00  2.37597089e-01 
 4.56000000e+00  2.75336636e-01 
 4.57000000e+00  3.16679493e-01 
 4.58000000e+00  3.61503578e-01 
 4.59000000e+00  4.09649680e-01 
 4.60000000e+00  4.60933988e-01 
 4.61000000e+00  5.15159120e-01 
 4.62000000e+00  5.72123064e-01 
 4.63000000e+00  6.31625938e-01 
 4.64000000e+00  6.93474756e-01 
 4.65000000e+00  7.57486506e-01 
 4.66000000e+00  8.23489933e-01 
 4.67000000e+00  8.91326343e-01 
 4.68000000e+00  9.60849732e-01 
 4.69000000e+00  1.03192646e+00 
 4.70000000e+00  1.10443462e+00 
 4.71000000e+00  1.17826331e+00 
 4.72000000e+00  1.25331173e+00 
 4.73000000e+00  1.32948837e+00 
 4.74000000e+00  1.40671013e+00 
 4.75000000e+00  1.48490154e+00 
 4.76000000e+00  1.56399400e+00 
 4.77000000e+00  1.64392512e+00 
 4.78000000e+00  1.72463807e+00 
 4.79000000e+00  1.80608103e+00 
 4.80000000e+00  1.88820668e+00 
 4.81000000e+00  1.97097175e+00 
 4.82000000e+00  2.05433661e+00 
 4.83000000e+00  2.13826492e+00 
 4.84000000e+00  2.22272329e+00 
 4.85000000e+00  2.30768099e+00 
 4.86000000e+00  2.39310971e+00 
 4.87000000e+00  2.47898334e+00 
 4.88000000e+00  2.56527772e+00 
 4.89000000e+00  2.65197049e+00 
 4.90000000e+00  2.73904095e+00 
 4.91000000e+00  2.82646986e+00 
 4.92000000e+00  2.91423932e+00 
 4.93000000e+00  3.00233271e+00 
 4.94000000e+00  3.09073450e+00 
 4.95000000e+00  3.17943022e+00 
 4.96000000e+00  3.26840632e+00 
 4.97000000e+00  3.35765016e+00 
 4.98000000e+00  3.44714987e+00 
 4.99000000e+00  3.53689434e+00 
 5.00000000e+00  3.62687310e+00 
